mikroProcesor/tb/alu_acc_flagi_tb.vcd
$date
	Sun Dec 07 12:42:24 2025
$end
$version
	Icarus Verilog
$end
$timescale
	1ps
$end
$scope module alu_acc_flagi_tb $end
$var wire 8 ! a [7:0] $end
$var wire 8 " out [7:0] $end
$var wire 1 # Z_out $end
$var wire 1 $ Z_in $end
$var wire 1 % S_out $end
$var wire 1 & S_in $end
$var wire 1 ' P_out $end
$var wire 1 ( P_in $end
$var wire 1 ) OV_out $end
$var wire 1 * OV_in $end
$var wire 1 + C_out $end
$var wire 1 , C_in $end
$var wire 8 - A_wyj [7:0] $end
$var parameter 32 . W $end
$var reg 1 / A_ce $end
$var reg 1 0 C_OV_en $end
$var reg 1 1 C_OV_kasowanie $end
$var reg 3 2 alu_op [2:0] $end
$var reg 8 3 b [7:0] $end
$var reg 1 4 clk $end
$var reg 1 5 rst $end
$scope module uut_akumulator $end
$var wire 1 / A_ce $end
$var wire 1 4 clk $end
$var wire 8 6 out [7:0] $end
$var wire 1 5 rst $end
$var wire 8 7 a [7:0] $end
$var parameter 32 8 ALU_rozm_data $end
$var reg 8 9 akum [7:0] $end
$scope begin always_A $end
$upscope $end
$upscope $end
$scope module uut_alu $end
$var wire 1 , C $end
$var wire 1 * OV $end
$var wire 8 : a [7:0] $end
$var wire 3 ; alu_op [2:0] $end
$var wire 8 < b [7:0] $end
$var wire 1 $ Z $end
$var wire 1 & S $end
$var wire 1 ( P $end
$var wire 1 + C_in $end
$var parameter 32 = ALU_rozm_data $end
$var reg 1 > carry $end
$var reg 8 ? out [7:0] $end
$scope begin blockName $end
$upscope $end
$upscope $end
$scope module uut_flagi $end
$var wire 1 0 C_OV_en $end
$var wire 1 1 C_OV_kasowanie $end
$var wire 1 , C_in $end
$var wire 1 * OV_in $end
$var wire 1 ( P_in $end
$var wire 1 & S_in $end
$var wire 1 $ Z_in $end
$var wire 1 4 clk $end
$var wire 1 5 rst $end
$var wire 1 # Z_out $end
$var wire 1 % S_out $end
$var wire 1 ' P_out $end
$var wire 1 ) OV_out $end
$var wire 1 + C_out $end
$var reg 8 @ rejestr_flag [7:0] $end
$upscope $end
$upscope $end
$enddefinitions $end
$comment Show the parameter values. $end
$dumpall
b1000 =
b1000 8
b1000 .
$end
#0
$dumpvars
bx @
b0 ?
x>
b0 <
b0 ;
bx :
bx 9
b0 7
bx 6
05
14
b0 3
b0 2
x1
x0
0/
bx -
x,
x+
0*
x)
1(
x'
0&
x%
1$
x#
b0 "
bx !
$end
#5000
04
#10000
0+
0%
0#
0)
0'
b0 !
b0 :
b0 -
b0 6
b0 9
b0 @
14
15
#15000
04
#20000
1#
1'
b101 @
14
05
#25000
04
#30000
0,
0>
14
b100 2
b100 ;
#35000
04
#40000
0#
b1 @
0$
b101 "
b101 7
b101 ?
14
b101 3
b101 <
#45000
04
#50000
1#
b101 @
1$
b0 "
b0 7
b0 ?
14
b0 3
b0 <
b0 2
b0 ;
#55000
04
#60000
0#
b1 @
1*
1&
0$
b11111111 "
b11111111 7
b11111111 ?
14
b111 2
b111 ;
#65000
04
#70000
1%
b1001 @
0*
b10101010 "
b10101010 7
b10101010 ?
14
b10101010 3
b10101010 <
b0 2
b0 ;
#75000
04
#80000
0'
b1000 @
0(
b10101011 "
b10101011 7
b10101011 ?
14
b10101011 3
b10101011 <
#85000
04
#90000
b10000000 "
b10000000 7
b10000000 ?
14
b10000000 3
b10000000 <
#95000
04
#100000
1'
b1001 @
0&
1(
b1100000 "
b1100000 7
b1100000 ?
14
b1100000 3
b1100000 <
#105000
04
#110000
0%
0'
b0 @
1&
0(
b10001100 "
b10001100 7
b10001100 ?
14
b10001100 3
b10001100 <
#115000
04
#120000
1%
1#
1'
b1101 @
0&
1(
1$
b0 "
b0 7
b0 ?
14
b0 3
b0 <
#125000
04
#130000
0%
0#
b1 @
1&
0$
b11111111 "
b11111111 7
b11111111 ?
14
b11111111 3
b11111111 <
#135000
04
#140000
1%
b1001 @
14
#145000
04
#150000
14
#155000
04
#160000
14
#165000
04
#170000
14
#175000
04
#180000
0'
b1000 @
0&
0(
b100 "
b100 7
b100 ?
14
b100 2
b100 ;
b100 3
b100 <
#185000
04
#190000
0%
b0 @
b1 "
b1 7
b1 ?
14
b1 3
b1 <
#195000
04
#200000
14
#205000
04
#210000
1'
b1 @
1&
1(
b11000000 "
b11000000 7
b11000000 ?
14
b11000000 3
b11000000 <
#215000
04
#220000
1%
0'
b1000 @
0&
0(
b100 "
b100 7
b100 ?
14
b100 3
b100 <
#225000
04
#230000
0%
1'
b1 @
1&
1(
b11111111 "
b11111111 7
b11111111 ?
14
b11111111 3
b11111111 <
#235000
04
#240000
1%
b1001 @
14
#245000
04
#250000
14
#255000
04
#260000
14
#265000
04
#270000
14
#275000
04
#280000
1*
1,
1>
b11111100 "
b11111100 7
b11111100 ?
14
b101 2
b101 ;
b100 3
b100 <
#285000
04
#290000
0'
b1000 @
0(
b11111011 "
b11111011 7
b11111011 ?
14
b101 3
b101 <
