mikroProcesor/tb/port_tb.vcd
$date
	Fri Nov 28 21:19:35 2025
$end
$version
	Icarus Verilog
$end
$timescale
	1ps
$end
$scope module port_tb $end
$var wire 8 ! in_out_A [7:0] $end
$var wire 8 " in_out_B [7:0] $end
$var wire 8 # out [7:0] $end
$var wire 8 $ in_out_C [7:0] $end
$var parameter 32 % A $end
$var parameter 32 & B $end
$var reg 8 ' SW_A_driver [7:0] $end
$var reg 8 ( SW_B_driver [7:0] $end
$var reg 1 ) clk $end
$var reg 8 * dane [7:0] $end
$var reg 2 + nr_P_DDRx [1:0] $end
$var reg 2 , nr_P_PINx [1:0] $end
$var reg 2 - nr_P_PORTx [1:0] $end
$var reg 1 . rst $end
$var reg 1 / wr_DDRx $end
$var reg 1 0 wr_PORTx $end
$scope module uut $end
$var wire 1 ) clk $end
$var wire 8 1 dane [7:0] $end
$var wire 8 2 in_out_A [7:0] $end
$var wire 8 3 in_out_B [7:0] $end
$var wire 2 4 nr_P_DDRx [1:0] $end
$var wire 2 5 nr_P_PINx [1:0] $end
$var wire 2 6 nr_P_PORTx [1:0] $end
$var wire 8 7 out [7:0] $end
$var wire 1 . rst $end
$var wire 1 / wr_DDRx $end
$var wire 1 0 wr_PORTx $end
$var wire 8 8 in_out_C [7:0] $end
$var parameter 32 9 Port_liczba $end
$var parameter 32 : Port_rozm_data $end
$scope begin alwasyDDR $end
$upscope $end
$scope begin alwaysPORT $end
$upscope $end
$upscope $end
$upscope $end
$enddefinitions $end
$comment Show the parameter values. $end
$dumpall
b1000 :
b11 9
b11 &
b1000 %
$end
#0
$dumpvars
bx 8
bx 7
bx 6
bx 5
bx 4
bx 3
bx 2
bx 1
x0
x/
0.
bx -
bx ,
bx +
bx *
1)
bx (
bx '
bx $
bx #
bx "
bx !
$end
#5000
0)
#10000
b0 #
b0 7
b0 $
b0 8
b0 "
b0 3
b0 !
b0 2
1)
b0 (
b0 '
b0 ,
b0 5
b0 -
b0 6
b0 +
b0 4
b0 *
b0 1
00
0/
1.
#15000
0)
#20000
1)
#25000
0)
#30000
1)
1/
0.
#35000
0)
#40000
1)
0/
#45000
0)
#50000
1)
1/
b1 +
b1 4
#55000
0)
#60000
1)
0/
#65000
0)
#70000
1)
1/
b11111111 *
b11111111 1
b10 +
b10 4
#75000
0)
#80000
1)
0/
#85000
0)
#90000
b1 #
b1 7
b1 !
b1 2
1)
b1 '
#95000
0)
#100000
1)
b100 "
b100 3
b100 (
#105000
0)
#110000
1)
#115000
0)
#120000
1)
b100 #
b100 7
b1 ,
b1 5
#125000
0)
#130000
b101 $
b101 8
1)
b10 -
b10 6
10
b101 *
b101 1
