mikroProcesor/tb/procesor_tb.vcd
$date
	Fri Jan 16 18:27:45 2026
$end
$version
	Icarus Verilog
$end
$timescale
	1ps
$end
$scope module procesor_tb $end
$var wire 8 ! SW1 [7:0] $end
$var wire 8 " SW2 [7:0] $end
$var wire 8 # LED [7:0] $end
$var reg 8 $ SW_A [7:0] $end
$var reg 8 % SW_B [7:0] $end
$var reg 1 & clk $end
$var reg 1 ' ext_przerwanie $end
$var reg 1 ( rst $end
$scope module u_procesor $end
$var wire 8 ) SW_A [7:0] $end
$var wire 8 * SW_B [7:0] $end
$var wire 1 ( button_c $end
$var wire 1 & clk $end
$var wire 1 ' przerwanie_zewnetrzne $end
$var wire 1 + znak_S $end
$var wire 1 , zero_Z $end
$var wire 1 - zapisz_control $end
$var wire 1 . zapisz_Low $end
$var wire 1 / zapisz_High $end
$var wire 1 0 wr_Rx $end
$var wire 1 1 wr_PORTx $end
$var wire 1 2 wr_MEM $end
$var wire 1 3 wr_DDRx $end
$var wire 8 4 wartosc_do_licznika [7:0] $end
$var wire 1 5 stos_push $end
$var wire 1 6 stos_pop $end
$var wire 1 7 stos_pc_push $end
$var wire 1 8 stos_pc_pop $end
$var wire 1 9 stos_pc_full $end
$var wire 1 : stos_pc_empty $end
$var wire 8 ; stos_pc_data [7:0] $end
$var wire 1 < stos_full $end
$var wire 1 = stos_empty $end
$var wire 8 > stos_data [7:0] $end
$var wire 8 ? stala_zmienna [7:0] $end
$var wire 1 @ skok_stos $end
$var wire 1 A skok $end
$var wire 16 B rozkaz [15:0] $end
$var wire 8 C przerwanie_wektor [7:0] $end
$var wire 1 D przerwanie_on $end
$var wire 1 E przerwanie_off $end
$var wire 1 F przerw $end
$var wire 1 G przepelnienie_C $end
$var wire 1 H pc_rst $end
$var wire 8 I pc_licznik [7:0] $end
$var wire 1 J parzystosc_P $end
$var wire 8 K out_alu [7:0] $end
$var wire 8 L out_Rx [7:0] $end
$var wire 8 M out_Port [7:0] $end
$var wire 8 N out_MEM [7:0] $end
$var wire 3 O numer_Rx [2:0] $end
$var wire 2 P nr_PORTx [1:0] $end
$var wire 2 Q nr_PINx [1:0] $end
$var wire 2 R nr_DDRx [1:0] $end
$var wire 1 S nadmiar_OV $end
$var wire 1 T mux_address $end
$var wire 1 U licznik_przerwanie $end
$var wire 1 V flaga_licznik $end
$var wire 1 W flaga_clear_licznik $end
$var wire 8 X data [7:0] $end
$var wire 1 Y carry $end
$var wire 4 Z alu_op [3:0] $end
$var wire 8 [ adres_skoku [7:0] $end
$var wire 8 \ address_wybor [7:0] $end
$var wire 8 ] address [7:0] $end
$var wire 1 ^ a_ce $end
$var wire 3 _ MUX_im_rx_mem_port [2:0] $end
$var wire 8 ` LED [7:0] $end
$var wire 1 a ID_Z $end
$var wire 1 b ID_S $end
$var wire 1 c ID_P $end
$var wire 1 d ID_OV $end
$var wire 1 e ID_C_OV_kasowanie $end
$var wire 1 f ID_C_OV_en $end
$var parameter 32 g DATA_szerokosc_strony $end
$var parameter 32 h P_MEM_address $end
$var parameter 32 i P_PORT_liczba $end
$var parameter 32 j P_PROC_data $end
$var parameter 32 k P_PROG_addres $end
$var parameter 32 l P_PROG_data $end
$var parameter 32 m P_Rx_ILE $end
$var parameter 32 n P_STOS_depth $end
$var reg 8 o mux_I_R_M_P [7:0] $end
$scope module u_ID $end
$var wire 16 p rozkaz [15:0] $end
$var wire 1 F jest_przerwanie $end
$var wire 8 q int_vec [7:0] $end
$var wire 1 a Z_in $end
$var wire 1 b S_in $end
$var wire 1 c P_in $end
$var wire 1 d OV_in $end
$var wire 1 9 ID_stos_pc_full $end
$var wire 1 : ID_stos_pc_empty $end
$var wire 1 < ID_stos_full $end
$var wire 1 = ID_stos_empty $end
$var wire 1 V ID_flaga_licznik $end
$var wire 1 Y C_in $end
$var parameter 32 r ID_rozm_adres $end
$var parameter 32 s ID_rozm_dana $end
$var parameter 32 t I_WIDTH $end
$var reg 4 u ALU_op [3:0] $end
$var reg 1 ^ A_ce $end
$var reg 1 f C_OV_en $end
$var reg 1 e C_OV_kasowanie $end
$var reg 1 W ID_flaga_clear_licznik $end
$var reg 1 6 ID_pop $end
$var reg 1 8 ID_pop_pc $end
$var reg 1 5 ID_push $end
$var reg 1 7 ID_push_pc $end
$var reg 1 H ID_rst $end
$var reg 1 / ID_zapisz_H $end
$var reg 1 . ID_zapisz_L $end
$var reg 1 - ID_zapisz_control $end
$var reg 3 v MUX_IM_Rx_MEM_PORT [2:0] $end
$var reg 1 T MUX_adres $end
$var reg 8 w adres [7:0] $end
$var reg 8 x adres_skok_ID [7:0] $end
$var reg 1 y flagi_en $end
$var reg 5 z instrukcja [4:0] $end
$var reg 1 E int_dis $end
$var reg 1 D int_en $end
$var reg 8 { licznik_wartosc [7:0] $end
$var reg 2 | nr_P_DDRx [1:0] $end
$var reg 2 } nr_P_PINx [1:0] $end
$var reg 2 ~ nr_P_PORTx [1:0] $end
$var reg 3 !" nr_Rx [2:0] $end
$var reg 1 A skok_ID $end
$var reg 1 @ skok_pc_ID $end
$var reg 8 "" wartosc_IM [7:0] $end
$var reg 1 3 wr_DDRx $end
$var reg 1 2 wr_MEM $end
$var reg 1 1 wr_PORTx $end
$var reg 1 0 wr_Rx $end
$scope begin ID_always $end
$upscope $end
$upscope $end
$scope module u_akumulator $end
$var wire 1 ^ A_ce $end
$var wire 1 & clk $end
$var wire 8 #" out [7:0] $end
$var wire 1 $" rst $end
$var wire 8 %" a [7:0] $end
$var parameter 32 &" ALU_rozm_data $end
$var reg 8 '" akum [7:0] $end
$scope begin always_A $end
$upscope $end
$upscope $end
$scope module u_alu $end
$var wire 1 G C $end
$var wire 1 S OV $end
$var wire 8 (" a [7:0] $end
$var wire 4 )" alu_op [3:0] $end
$var wire 8 *" b [7:0] $end
$var wire 1 , Z $end
$var wire 1 + S $end
$var wire 1 J P $end
$var wire 1 Y C_in $end
$var parameter 32 +" ALU_rozm_data $end
$var reg 1 ," carry $end
$var reg 8 -" out [7:0] $end
$scope begin blockName $end
$upscope $end
$upscope $end
$scope module u_flagi $end
$var wire 1 f C_OV_en $end
$var wire 1 e C_OV_kasowanie $end
$var wire 1 G C_in $end
$var wire 1 S OV_in $end
$var wire 1 J P_in $end
$var wire 1 + S_in $end
$var wire 1 , Z_in $end
$var wire 1 & clk $end
$var wire 1 ^ flagi_en $end
$var wire 1 ." rst $end
$var wire 1 a Z_out $end
$var wire 1 b S_out $end
$var wire 1 c P_out $end
$var wire 1 d OV_out $end
$var wire 1 Y C_out $end
$var reg 8 /" rejestr_flag [7:0] $end
$upscope $end
$scope module u_licznik $end
$var wire 1 & clk $end
$var wire 1 W licznik_flaga_clear $end
$var wire 1 0" rst $end
$var wire 8 1" wartosc [7:0] $end
$var wire 1 / zapisz_H $end
$var wire 1 . zapisz_L $end
$var wire 1 - zapisz_ctr $end
$var reg 1 2" int_enable $end
$var reg 16 3" licznik [15:0] $end
$var reg 1 4" licznik_enable $end
$var reg 1 V licznik_flaga $end
$var reg 1 U licznik_int $end
$var reg 16 5" preskaler [15:0] $end
$var reg 16 6" preskaler_cnt [15:0] $end
$var reg 1 7" tryb $end
$var reg 16 8" wartosc_max [15:0] $end
$upscope $end
$scope module u_pamiec_data $end
$var wire 8 9" adres [7:0] $end
$var wire 1 & clk $end
$var wire 8 :" dane [7:0] $end
$var wire 1 ;" rst $end
$var wire 1 2 wr_mem $end
$var wire 8 <" out [7:0] $end
$var parameter 32 =" ADDR_WIDTH_MEM $end
$var parameter 32 >" DATA_WIDTH_MEM $end
$var parameter 32 ?" DATA_WIDTH_STRONY $end
$var parameter 44 @" MEM_SIZE_Fizycznie $end
$var reg 4 A" strona [3:0] $end
$scope begin always_mem $end
$upscope $end
$upscope $end
$scope module u_pamiec_prog $end
$var wire 16 B" out [15:0] $end
$var wire 8 C" a [7:0] $end
$var parameter 32 D" ADDR_WIDTH $end
$var parameter 32 E" DATA_WIDTH $end
$upscope $end
$scope module u_pc $end
$var wire 1 H ID_rst $end
$var wire 8 F" adres_skok_pc [7:0] $end
$var wire 1 & clk $end
$var wire 1 D reti_int_en $end
$var wire 1 G" rst $end
$var wire 1 A skok_pc $end
$var wire 1 @ skok_pc_stos $end
$var wire 8 H" adres_skok_pc_stos [7:0] $end
$var parameter 32 I" W $end
$var reg 8 J" PC_count [7:0] $end
$scope begin LicznikRozkazow $end
$upscope $end
$upscope $end
$scope module u_pc_stos $end
$var wire 1 & clk $end
$var wire 8 K" data_in [7:0] $end
$var wire 1 8 pop $end
$var wire 1 7 push $end
$var wire 1 L" rst $end
$var parameter 32 M" STOS_Rozm $end
$var parameter 32 N" STOS_data_rozm $end
$var reg 8 O" data_out [7:0] $end
$var reg 1 : empty $end
$var reg 1 9 full $end
$var reg 3 P" stos_ptr [2:0] $end
$scope begin blockName $end
$upscope $end
$scope begin stos $end
$scope begin $ivl_for_loop1 $end
$var integer 32 Q" i [31:0] $end
$upscope $end
$upscope $end
$upscope $end
$scope module u_port $end
$var wire 1 & clk $end
$var wire 8 R" dane [7:0] $end
$var wire 8 S" in_out_A [7:0] $end
$var wire 8 T" in_out_B [7:0] $end
$var wire 2 U" nr_P_DDRx [1:0] $end
$var wire 2 V" nr_P_PINx [1:0] $end
$var wire 2 W" nr_P_PORTx [1:0] $end
$var wire 8 X" out [7:0] $end
$var wire 1 Y" rst $end
$var wire 1 3 wr_DDRx $end
$var wire 1 1 wr_PORTx $end
$var wire 8 Z" in_out_C [7:0] $end
$var parameter 32 [" Port_liczba $end
$var parameter 32 \" Port_rozm_data $end
$scope begin alwasyDDR $end
$upscope $end
$scope begin alwaysPORT $end
$upscope $end
$upscope $end
$scope module u_przerwanie $end
$var wire 1 & clk $end
$var wire 1 ' ext_int $end
$var wire 1 E int_disable $end
$var wire 1 D int_enable $end
$var wire 1 ]" rst $end
$var wire 1 U timer_int $end
$var reg 1 ^" ext_int_prev $end
$var reg 1 _" int_a $end
$var reg 1 `" int_b $end
$var reg 8 a" int_vector [7:0] $end
$var reg 1 F przerwanie $end
$var reg 1 b" przerwanie_en $end
$var reg 1 c" timer_int_prev $end
$upscope $end
$scope module u_rejestry $end
$var wire 1 & clk $end
$var wire 8 d" dane [7:0] $end
$var wire 3 e" nr_Rx [2:0] $end
$var wire 8 f" out [7:0] $end
$var wire 1 g" rst $end
$var wire 1 0 wr_Rx $end
$var parameter 32 h" Rx_liczba $end
$var parameter 32 i" Rx_rozm_data $end
$scope begin always_Rx $end
$scope begin $ivl_for_loop0 $end
$var integer 32 j" i [31:0] $end
$upscope $end
$upscope $end
$upscope $end
$scope module u_stos $end
$var wire 1 & clk $end
$var wire 8 k" data_in [7:0] $end
$var wire 1 6 pop $end
$var wire 1 5 push $end
$var wire 1 l" rst $end
$var parameter 32 m" STOS_Rozm $end
$var parameter 32 n" STOS_data_rozm $end
$var reg 8 o" data_out [7:0] $end
$var reg 1 = empty $end
$var reg 1 < full $end
$var reg 3 p" stos_ptr [2:0] $end
$scope begin blockName $end
$upscope $end
$scope begin stos $end
$scope begin $ivl_for_loop1 $end
$var integer 32 q" i [31:0] $end
$upscope $end
$upscope $end
$upscope $end
$scope begin always_MUX_IM_Rx_MEM_PORT $end
$upscope $end
$upscope $end
$upscope $end
$enddefinitions $end
$comment Show the parameter values. $end
$dumpall
b1000 n"
b101 m"
b1000 i"
b1000 h"
b1000 \"
b11 ["
b1000 N"
b101 M"
b1000 I"
b10000 E"
b1000 D"
b1000000000000 @"
b100 ?"
b1000 >"
b1000 ="
b1000 +"
b1000 &"
b10000 t
b1000 s
b1000 r
b100000 n
b1000 m
b10000 l
b1000 k
b1000 j
b11 i
b1000 h
b100 g
$end
#0
$dumpvars
b0 q"
bx p"
b0 o"
xl"
bx k"
b0 j"
xg"
bx f"
b0 e"
bx d"
xc"
xb"
b0 a"
x`"
x_"
x^"
x]"
bx Z"
xY"
bx X"
b0 W"
b0 V"
b0 U"
bx T"
bx S"
bx R"
b0 Q"
bx P"
b0 O"
xL"
bx K"
bx J"
b0 H"
xG"
b0 F"
bx C"
bx B"
bx A"
bx <"
x;"
bx :"
b0 9"
bx 8"
x7"
bx 6"
bx 5"
x4"
bx 3"
x2"
b0 1"
x0"
bx /"
x."
b0 -"
0,"
b0 *"
b0 )"
bx ("
bx '"
b0 %"
x$"
bx #"
b0 ""
b0 !"
b0 ~
b0 }
b0 |
b0 {
bx z
xy
b0 x
b0 w
b0 v
b0 u
b0 q
bx p
b0 o
0f
0e
xd
xc
xb
xa
bx `
b0 _
0^
b0 ]
b0 \
b0 [
b0 Z
xY
bx X
0W
0V
0U
0T
0S
b0 R
b0 Q
b0 P
b0 O
bx N
bx M
bx L
b0 K
1J
bx I
0H
0G
0F
0E
0D
b0 C
bx B
0A
0@
b0 ?
b0 >
x=
x<
b0 ;
x:
x9
08
07
06
05
b0 4
03
02
01
00
0/
0.
0-
1,
0+
bx *
bx )
x(
x'
1&
bx %
bx $
bx #
bx "
bx !
$end
#5000
0&
#10000
0c"
1&
#15000
0&
#20000
0^"
0G"
0L"
0]"
00"
0g"
0;"
0Y"
0l"
0$"
0."
1&
b0 %
b0 $
0'
1(
#25000
0&
#30000
b0 M
b0 X"
b0 #
b0 `
b0 Z"
b0 "
b0 *
b0 T"
b0 !
b0 )
b0 S"
b110 [
b110 x
b110 F"
1A
b100 z
0Y
0b
0a
0d
0c
b0 X
b0 #"
b0 '"
b0 ("
b0 :"
b0 R"
b0 d"
b0 k"
1=
0<
b0 p"
b0 A"
b0 L
b0 f"
1:
09
b0 P"
b10000000000110 B
b10000000000110 p
b10000000000110 B"
b0 I
b0 C"
b0 J"
b0 K"
b0 /"
b1111111111111111 8"
02"
07"
04"
b1 5"
b0 6"
b0 3"
0`"
0_"
0b"
b101 q"
b1000 j"
b101 Q"
1G"
1L"
1]"
10"
1g"
1;"
1Y"
1l"
1$"
1."
1&
0(
#35000
0&
#40000
1D
b0 [
b0 x
b0 F"
0A
b11000 z
b1100000000000000 B
b1100000000000000 p
b1100000000000000 B"
b110 I
b110 C"
b110 J"
b110 K"
0G"
0L"
0]"
00"
0g"
0;"
0Y"
0l"
0$"
0."
1&
1(
#45000
0&
#50000
1/
0D
b11110 z
b1111000000000000 B
b1111000000000000 p
b1111000000000000 B"
b111 I
b111 C"
b111 J"
b111 K"
1b"
1&
#55000
0&
#60000
1.
b1010 4
b1010 {
b1010 1"
0/
b11011 z
b1101100000001010 B
b1101100000001010 p
b1101100000001010 B"
b1000 I
b1000 C"
b1000 J"
b1000 K"
b11111111 8"
1&
#65000
0&
#70000
1-
0.
b10000010 4
b10000010 {
b10000010 1"
b11101 z
b1110100010000010 B
b1110100010000010 p
b1110100010000010 B"
b1001 I
b1001 C"
b1001 J"
b1001 K"
b1010 8"
1&
#75000
0&
#80000
0J
0,
b1100100 K
b1100100 %"
b1100100 -"
b1100100 o
b1100100 *"
1^
b1100100 ?
b1100100 ""
0-
b0 4
b0 {
b0 1"
b1 z
b101101100100 B
b101101100100 p
b101101100100 B"
b1010 I
b1010 C"
b1010 J"
b1010 K"
b1000 5"
14"
1&
#85000
0&
#90000
1J
1,
b0 K
b0 %"
b0 -"
b0 o
b0 *"
10
0^
b0 ?
b0 ""
b11 z
b1100100 X
b1100100 #"
b1100100 '"
b1100100 ("
b1100100 :"
b1100100 R"
b1100100 d"
b1100100 k"
b1100100000000 B
b1100100000000 p
b1100100000000 B"
b1011 I
b1011 C"
b1011 J"
b1011 K"
b1 6"
1&
#95000
0&
#100000
0,
b101 K
b101 %"
b101 -"
b101 o
b101 *"
1^
b101 ?
b101 ""
00
b1 z
b1100100 L
b1100100 f"
b101100000101 B
b101100000101 p
b101100000101 B"
b1100 I
b1100 C"
b1100 J"
b1100 K"
b10 6"
1&
#105000
0&
#110000
1,
b0 K
b0 %"
b0 -"
b0 o
b0 *"
b0 L
b0 f"
b1 O
b1 !"
b1 e"
10
0^
b0 ?
b0 ""
b11 z
1c
b101 X
b101 #"
b101 '"
b101 ("
b101 :"
b101 R"
b101 d"
b101 k"
b1100100000001 B
b1100100000001 p
b1100100000001 B"
b1101 I
b1101 C"
b1101 J"
b1101 K"
b1 /"
b11 6"
1&
#115000
0&
#120000
0,
b1010 K
b1010 %"
b1010 -"
b1010 o
b1010 *"
1^
b1010 ?
b1010 ""
00
b0 O
b0 !"
b0 e"
b1 z
b1100100 L
b1100100 f"
b101100001010 B
b101100001010 p
b101100001010 B"
b1110 I
b1110 C"
b1110 J"
b1110 K"
1_"
1^"
b100 6"
1&
1'
#125000
0&
#130000
1,
b0 K
b0 %"
b0 -"
b0 o
b0 *"
b10 [
b10 x
b10 F"
17
1A
1E
0^
b0 ?
b0 ""
b11 z
b1010 X
b1010 #"
b1010 '"
b1010 ("
b1010 :"
b1010 R"
b1010 d"
b1010 k"
b1100100000111 B
b1100100000111 p
b1100100000111 B"
b1111 I
b1111 C"
b1111 J"
b1111 K"
b101 6"
0_"
b10 C
b10 q
b10 a"
1F
1&
#135000
0&
#140000
0E
07
b11001000 [
b11001000 x
b11001000 F"
1A
b100 z
0:
b1 P"
b10000011001000 B
b10000011001000 p
b10000011001000 B"
b10 I
b10 C"
b10 J"
b10 K"
0b"
b0 C
b0 q
b0 a"
0F
b110 6"
1&
#145000
0&
#150000
15
b0 [
b0 x
b0 F"
0A
b10100 z
b1010000000000000 B
b1010000000000000 p
b1010000000000000 B"
b11001000 I
b11001000 C"
b11001000 J"
b11001000 K"
b111 6"
1&
#155000
0&
#160000
1^
05
b1 z
0=
b1 p"
b101100000000 B
b101100000000 p
b101100000000 B"
b11001001 I
b11001001 C"
b11001001 J"
b11001001 K"
b0 6"
b1 3"
1&
#165000
0&
#170000
b0 L
b0 f"
b111 O
b111 !"
b111 e"
10
0^
b11 z
1a
b0 X
b0 #"
b0 '"
b0 ("
b0 :"
b0 R"
b0 d"
b0 k"
b1100100000111 B
b1100100000111 p
b1100100000111 B"
b11001010 I
b11001010 C"
b11001010 J"
b11001010 K"
b101 /"
b1 6"
0^"
1&
0'
#175000
0&
#180000
0,
b1010 K
b1010 %"
b1010 -"
b1010 o
b1010 *"
b1010 >
b1010 o"
b100 _
b100 v
1^
16
00
b1100100 L
b1100100 f"
b0 O
b0 !"
b0 e"
b10101 z
b1010100000000000 B
b1010100000000000 p
b1010100000000000 B"
b11001011 I
b11001011 C"
b11001011 J"
b11001011 K"
b10 6"
1&
#185000
0&
#190000
1,
b0 K
b0 %"
b0 -"
b1111 ;
b1111 H"
b1111 O"
b0 o
b0 *"
b0 >
b0 o"
1@
1A
18
1D
06
0^
b0 _
b0 v
b11010 z
0a
b1010 X
b1010 #"
b1010 '"
b1010 ("
b1010 :"
b1010 R"
b1010 d"
b1010 k"
1=
b0 p"
b1101000000000000 B
b1101000000000000 p
b1101000000000000 B"
b11001100 I
b11001100 C"
b11001100 J"
b11001100 K"
b1 /"
b11 6"
1&
#195000
0&
#200000
b0 ;
b0 H"
b0 O"
b0 L
b0 f"
b111 O
b111 !"
b111 e"
10
0D
0@
08
0A
b11 z
1:
b0 P"
b1100100000111 B
b1100100000111 p
b1100100000111 B"
b1111 I
b1111 C"
b1111 J"
b1111 K"
1b"
b100 6"
1&
#205000
0&
#210000
0J
0,
b1100100 K
b1100100 %"
b1100100 -"
b1100100 o
b1100100 *"
1^
b1 _
b1 v
00
b0 O
b0 !"
b0 e"
b1 z
b1100100 L
b1100100 f"
b100100000000 B
b100100000000 p
b100100000000 B"
b10000 I
b10000 C"
b10000 J"
b10000 K"
b101 6"
1&
#215000
0&
#220000
0S
1J
0+
b101 o
b101 *"
b1101001 K
b1101001 %"
b1101001 -"
1f
b101 L
b101 f"
b1 O
b1 !"
b1 e"
b100 Z
b100 u
b100 )"
1^
b1 _
b1 v
b1001 z
0c
b1100100 X
b1100100 #"
b1100100 '"
b1100100 ("
b1100100 :"
b1100100 R"
b1100100 d"
b1100100 k"
b100100000000001 B
b100100000000001 p
b100100000000001 B"
b10001 I
b10001 C"
b10001 J"
b10001 K"
b110 6"
b0 /"
1&
#225000
0&
#230000
1,
b0 o
b0 *"
b0 K
b0 %"
b0 -"
10
0f
b0 Z
b0 u
b0 )"
0^
b0 _
b0 v
b1100100 L
b1100100 f"
b0 O
b0 !"
b0 e"
b11 z
1c
b1101001 X
b1101001 #"
b1101001 '"
b1101001 ("
b1101001 :"
b1101001 R"
b1101001 d"
b1101001 k"
b1100100000000 B
b1100100000000 p
b1100100000000 B"
b10010 I
b10010 C"
b10010 J"
b10010 K"
b1 /"
b111 6"
1&
#235000
0&
#240000
00
b11100 z
b1101001 L
b1101001 f"
b1110000000010101 B
b1110000000010101 p
b1110000000010101 B"
b10011 I
b10011 C"
b10011 J"
b10011 K"
b0 6"
b10 3"
1&
#245000
0&
#250000
b10011 [
b10011 x
b10011 F"
1A
b100 z
b10000000010011 B
b10000000010011 p
b10000000010011 B"
b10100 I
b10100 C"
b10100 J"
b10100 K"
b1 6"
1&
#255000
0&
#260000
b0 [
b0 x
b0 F"
0A
b11100 z
b1110000000010101 B
b1110000000010101 p
b1110000000010101 B"
b10011 I
b10011 C"
b10011 J"
b10011 K"
b10 6"
1&
#265000
0&
#270000
b10011 [
b10011 x
b10011 F"
1A
b100 z
b10000000010011 B
b10000000010011 p
b10000000010011 B"
b10100 I
b10100 C"
b10100 J"
b10100 K"
b11 6"
1&
#275000
0&
#280000
b0 [
b0 x
b0 F"
0A
b11100 z
b1110000000010101 B
b1110000000010101 p
b1110000000010101 B"
b10011 I
b10011 C"
b10011 J"
b10011 K"
b100 6"
1&
#285000
0&
#290000
b10011 [
b10011 x
b10011 F"
1A
b100 z
b10000000010011 B
b10000000010011 p
b10000000010011 B"
b10100 I
b10100 C"
b10100 J"
b10100 K"
b101 6"
1&
#295000
0&
#300000
b0 [
b0 x
b0 F"
0A
b11100 z
b1110000000010101 B
b1110000000010101 p
b1110000000010101 B"
b10011 I
b10011 C"
b10011 J"
b10011 K"
b110 6"
1&
#305000
0&
#310000
b10011 [
b10011 x
b10011 F"
1A
b100 z
b10000000010011 B
b10000000010011 p
b10000000010011 B"
b10100 I
b10100 C"
b10100 J"
b10100 K"
b111 6"
1&
#315000
0&
#320000
b0 [
b0 x
b0 F"
0A
b11100 z
b1110000000010101 B
b1110000000010101 p
b1110000000010101 B"
b10011 I
b10011 C"
b10011 J"
b10011 K"
b0 6"
b11 3"
1&
#325000
0&
#330000
b10011 [
b10011 x
b10011 F"
1A
b100 z
b10000000010011 B
b10000000010011 p
b10000000010011 B"
b10100 I
b10100 C"
b10100 J"
b10100 K"
b1 6"
1&
#335000
0&
#340000
b0 [
b0 x
b0 F"
0A
b11100 z
b1110000000010101 B
b1110000000010101 p
b1110000000010101 B"
b10011 I
b10011 C"
b10011 J"
b10011 K"
b10 6"
1&
#345000
0&
#350000
b10011 [
b10011 x
b10011 F"
1A
b100 z
b10000000010011 B
b10000000010011 p
b10000000010011 B"
b10100 I
b10100 C"
b10100 J"
b10100 K"
b11 6"
1&
#355000
0&
#360000
b0 [
b0 x
b0 F"
0A
b11100 z
b1110000000010101 B
b1110000000010101 p
b1110000000010101 B"
b10011 I
b10011 C"
b10011 J"
b10011 K"
b100 6"
1&
#365000
0&
#370000
b10011 [
b10011 x
b10011 F"
1A
b100 z
b10000000010011 B
b10000000010011 p
b10000000010011 B"
b10100 I
b10100 C"
b10100 J"
b10100 K"
b101 6"
1&
#375000
0&
#380000
b0 [
b0 x
b0 F"
0A
b11100 z
b1110000000010101 B
b1110000000010101 p
b1110000000010101 B"
b10011 I
b10011 C"
b10011 J"
b10011 K"
b110 6"
1&
#385000
0&
#390000
b10011 [
b10011 x
b10011 F"
1A
b100 z
b10000000010011 B
b10000000010011 p
b10000000010011 B"
b10100 I
b10100 C"
b10100 J"
b10100 K"
b111 6"
1&
#395000
0&
#400000
b0 [
b0 x
b0 F"
0A
b11100 z
b1110000000010101 B
b1110000000010101 p
b1110000000010101 B"
b10011 I
b10011 C"
b10011 J"
b10011 K"
b0 6"
b100 3"
1&
#405000
0&
#410000
b10011 [
b10011 x
b10011 F"
1A
b100 z
b10000000010011 B
b10000000010011 p
b10000000010011 B"
b10100 I
b10100 C"
b10100 J"
b10100 K"
b1 6"
1&
#415000
0&
#420000
b0 [
b0 x
b0 F"
0A
b11100 z
b1110000000010101 B
b1110000000010101 p
b1110000000010101 B"
b10011 I
b10011 C"
b10011 J"
b10011 K"
b10 6"
1&
#425000
0&
#430000
b10011 [
b10011 x
b10011 F"
1A
b100 z
b10000000010011 B
b10000000010011 p
b10000000010011 B"
b10100 I
b10100 C"
b10100 J"
b10100 K"
b11 6"
1&
#435000
0&
#440000
b0 [
b0 x
b0 F"
0A
b11100 z
b1110000000010101 B
b1110000000010101 p
b1110000000010101 B"
b10011 I
b10011 C"
b10011 J"
b10011 K"
b100 6"
1&
#445000
0&
#450000
b10011 [
b10011 x
b10011 F"
1A
b100 z
b10000000010011 B
b10000000010011 p
b10000000010011 B"
b10100 I
b10100 C"
b10100 J"
b10100 K"
b101 6"
1&
#455000
0&
#460000
b0 [
b0 x
b0 F"
0A
b11100 z
b1110000000010101 B
b1110000000010101 p
b1110000000010101 B"
b10011 I
b10011 C"
b10011 J"
b10011 K"
b110 6"
1&
#465000
0&
#470000
b10011 [
b10011 x
b10011 F"
1A
b100 z
b10000000010011 B
b10000000010011 p
b10000000010011 B"
b10100 I
b10100 C"
b10100 J"
b10100 K"
b111 6"
1&
#475000
0&
#480000
b0 [
b0 x
b0 F"
0A
b11100 z
b1110000000010101 B
b1110000000010101 p
b1110000000010101 B"
b10011 I
b10011 C"
b10011 J"
b10011 K"
b0 6"
b101 3"
1&
#485000
0&
1'
#490000
b10011 [
b10011 x
b10011 F"
1A
b100 z
b10000000010011 B
b10000000010011 p
b10000000010011 B"
b10100 I
b10100 C"
b10100 J"
b10100 K"
b1 6"
1_"
1^"
1&
#495000
0&
#500000
17
1E
b10 [
b10 x
b10 F"
1A
b11100 z
b1110000000010101 B
b1110000000010101 p
b1110000000010101 B"
b10011 I
b10011 C"
b10011 J"
b10011 K"
0_"
b10 C
b10 q
b10 a"
1F
b10 6"
1&
#505000
0&
#510000
0E
07
b11001000 [
b11001000 x
b11001000 F"
1A
b100 z
0:
b1 P"
b10000011001000 B
b10000011001000 p
b10000011001000 B"
b10 I
b10 C"
b10 J"
b10 K"
b11 6"
0b"
b0 C
b0 q
b0 a"
0F
1&
#515000
0&
#520000
15
b0 [
b0 x
b0 F"
0A
b10100 z
b1010000000000000 B
b1010000000000000 p
b1010000000000000 B"
b11001000 I
b11001000 C"
b11001000 J"
b11001000 K"
b100 6"
1&
#525000
0&
#530000
1^
05
b1 z
0=
b1 p"
b101100000000 B
b101100000000 p
b101100000000 B"
b11001001 I
b11001001 C"
b11001001 J"
b11001001 K"
b101 6"
1&
#535000
0&
#540000
b1010 L
b1010 f"
b111 O
b111 !"
b111 e"
10
0^
b11 z
1a
b0 X
b0 #"
b0 '"
b0 ("
b0 :"
b0 R"
b0 d"
b0 k"
b1100100000111 B
b1100100000111 p
b1100100000111 B"
b11001010 I
b11001010 C"
b11001010 J"
b11001010 K"
b110 6"
b101 /"
1&
#545000
0&
#550000
0,
b1101001 K
b1101001 %"
b1101001 -"
b1101001 o
b1101001 *"
b1101001 >
b1101001 o"
b100 _
b100 v
1^
16
00
b0 O
b0 !"
b0 e"
b10101 z
b1101001 L
b1101001 f"
b1010100000000000 B
b1010100000000000 p
b1010100000000000 B"
b11001011 I
b11001011 C"
b11001011 J"
b11001011 K"
b111 6"
1&
#555000
0&
#560000
1,
b0 K
b0 %"
b0 -"
b10011 ;
b10011 H"
b10011 O"
b0 o
b0 *"
b0 >
b0 o"
1@
1A
18
1D
06
0^
b0 _
b0 v
b11010 z
0a
b1101001 X
b1101001 #"
b1101001 '"
b1101001 ("
b1101001 :"
b1101001 R"
b1101001 d"
b1101001 k"
1=
b0 p"
b1101000000000000 B
b1101000000000000 p
b1101000000000000 B"
b11001100 I
b11001100 C"
b11001100 J"
b11001100 K"
b0 6"
b110 3"
b1 /"
1&
#565000
0&
#570000
b0 ;
b0 H"
b0 O"
0D
0@
08
0A
b11100 z
1:
b0 P"
b1110000000010101 B
b1110000000010101 p
b1110000000010101 B"
b10011 I
b10011 C"
b10011 J"
b10011 K"
b1 6"
1b"
1&
#575000
0&
#580000
b10011 [
b10011 x
b10011 F"
1A
b100 z
b10000000010011 B
b10000000010011 p
b10000000010011 B"
b10100 I
b10100 C"
b10100 J"
b10100 K"
b10 6"
1&
#585000
0&
#590000
b0 [
b0 x
b0 F"
0A
b11100 z
b1110000000010101 B
b1110000000010101 p
b1110000000010101 B"
b10011 I
b10011 C"
b10011 J"
b10011 K"
b11 6"
1&
#595000
0&
#600000
b10011 [
b10011 x
b10011 F"
1A
b100 z
b10000000010011 B
b10000000010011 p
b10000000010011 B"
b10100 I
b10100 C"
b10100 J"
b10100 K"
b100 6"
1&
#605000
0&
#610000
b0 [
b0 x
b0 F"
0A
b11100 z
b1110000000010101 B
b1110000000010101 p
b1110000000010101 B"
b10011 I
b10011 C"
b10011 J"
b10011 K"
b101 6"
1&
#615000
0&
#620000
b10011 [
b10011 x
b10011 F"
1A
b100 z
b10000000010011 B
b10000000010011 p
b10000000010011 B"
b10100 I
b10100 C"
b10100 J"
b10100 K"
b110 6"
1&
#625000
0&
#630000
b0 [
b0 x
b0 F"
0A
b11100 z
b1110000000010101 B
b1110000000010101 p
b1110000000010101 B"
b10011 I
b10011 C"
b10011 J"
b10011 K"
b111 6"
1&
#635000
b101 M
b101 X"
0&
b100 "
b100 *
b100 T"
b100 %
b101 !
b101 )
b101 S"
b101 $
0'
