mikroProcesor/tb/procesor_tb.vcd
$date
	Mon Jan 19 15:42:24 2026
$end
$version
	Icarus Verilog
$end
$timescale
	1ps
$end
$scope module procesor_tb $end
$var wire 8 ! SW1 [7:0] $end
$var wire 8 " SW2 [7:0] $end
$var wire 1 # dioda_error $end
$var wire 8 $ LED [7:0] $end
$var reg 8 % SW_A [7:0] $end
$var reg 8 & SW_B [7:0] $end
$var reg 1 ' clk $end
$var reg 1 ( ext_przerwanie $end
$var reg 1 ) rst $end
$scope module u_procesor $end
$var wire 1 ) button_c $end
$var wire 1 ' clk $end
$var wire 8 * in_out_A [7:0] $end
$var wire 8 + in_out_B [7:0] $end
$var wire 1 ( przerwanie_zewnetrzne $end
$var wire 1 , znak_S $end
$var wire 1 - zero_Z $end
$var wire 1 . zapisz_control $end
$var wire 1 / zapisz_Low $end
$var wire 1 0 zapisz_High $end
$var wire 1 1 wr_Rx $end
$var wire 1 2 wr_PORTx $end
$var wire 1 3 wr_MEM $end
$var wire 1 4 wr_DDRx $end
$var wire 8 5 wartosc_do_licznika [7:0] $end
$var wire 1 6 stos_push $end
$var wire 1 7 stos_pop $end
$var wire 1 8 stos_pc_push $end
$var wire 1 9 stos_pc_pop $end
$var wire 1 : stos_pc_full $end
$var wire 1 ; stos_pc_empty $end
$var wire 8 < stos_pc_data [7:0] $end
$var wire 1 = stos_full $end
$var wire 1 > stos_empty $end
$var wire 8 ? stos_data [7:0] $end
$var wire 8 @ stala_zmienna [7:0] $end
$var wire 1 A skok_stos $end
$var wire 1 B skok $end
$var wire 16 C rozkaz [15:0] $end
$var wire 8 D przerwanie_wektor [7:0] $end
$var wire 1 E przerwanie_on $end
$var wire 1 F przerwanie_off $end
$var wire 1 G przerw $end
$var wire 1 H przepelnienie_C $end
$var wire 1 I pc_rst $end
$var wire 8 J pc_licznik [7:0] $end
$var wire 1 K parzystosc_P $end
$var wire 8 L out_alu [7:0] $end
$var wire 8 M out_Rx [7:0] $end
$var wire 8 N out_Port [7:0] $end
$var wire 8 O out_MEM [7:0] $end
$var wire 3 P numer_Rx [2:0] $end
$var wire 2 Q nr_PORTx [1:0] $end
$var wire 2 R nr_PINx [1:0] $end
$var wire 2 S nr_DDRx [1:0] $end
$var wire 1 T nadmiar_OV $end
$var wire 1 U mux_address $end
$var wire 1 V licznik_przerwanie $end
$var wire 8 W in_out_C [7:0] $end
$var wire 1 X flaga_licznik $end
$var wire 1 Y flaga_clear_licznik $end
$var wire 1 Z dioda_err $end
$var wire 8 [ data [7:0] $end
$var wire 1 \ carry $end
$var wire 4 ] alu_op [3:0] $end
$var wire 8 ^ adres_skoku [7:0] $end
$var wire 8 _ address_wybor [7:0] $end
$var wire 8 ` address [7:0] $end
$var wire 1 a a_ce $end
$var wire 3 b MUX_im_rx_mem_port [2:0] $end
$var wire 1 c ID_Z $end
$var wire 1 d ID_S $end
$var wire 1 e ID_P $end
$var wire 1 f ID_OV $end
$var wire 1 g ID_C_OV_kasowanie $end
$var wire 1 h ID_C_OV_en $end
$var parameter 32 i DATA_szerokosc_strony $end
$var parameter 32 j P_MEM_address $end
$var parameter 32 k P_PROC_data $end
$var parameter 32 l P_PROG_addres $end
$var parameter 32 m P_PROG_data $end
$var parameter 32 n P_Rx_ILE $end
$var parameter 32 o P_STOS_depth $end
$var reg 1 # dioda_error $end
$var reg 1 p dioda_error_reg $end
$var reg 8 q mux_I_R_M_P [7:0] $end
$scope module u_ID $end
$var wire 16 r rozkaz [15:0] $end
$var wire 1 G jest_przerwanie $end
$var wire 8 s int_vec [7:0] $end
$var wire 1 c Z_in $end
$var wire 1 d S_in $end
$var wire 1 e P_in $end
$var wire 1 f OV_in $end
$var wire 1 : ID_stos_pc_full $end
$var wire 1 ; ID_stos_pc_empty $end
$var wire 1 = ID_stos_full $end
$var wire 1 > ID_stos_empty $end
$var wire 1 X ID_flaga_licznik $end
$var wire 1 \ C_in $end
$var parameter 32 t ID_rozm_adres $end
$var parameter 32 u ID_rozm_dana $end
$var parameter 32 v I_WIDTH $end
$var reg 4 w ALU_op [3:0] $end
$var reg 1 a A_ce $end
$var reg 1 h C_OV_en $end
$var reg 1 g C_OV_kasowanie $end
$var reg 1 Z ID_dioda_error $end
$var reg 1 Y ID_flaga_clear_licznik $end
$var reg 1 7 ID_pop $end
$var reg 1 9 ID_pop_pc $end
$var reg 1 6 ID_push $end
$var reg 1 8 ID_push_pc $end
$var reg 1 I ID_rst $end
$var reg 1 0 ID_zapisz_H $end
$var reg 1 / ID_zapisz_L $end
$var reg 1 . ID_zapisz_control $end
$var reg 3 x MUX_IM_Rx_MEM_PORT [2:0] $end
$var reg 1 U MUX_adres $end
$var reg 8 y adres [7:0] $end
$var reg 8 z adres_skok_ID [7:0] $end
$var reg 5 { instrukcja [4:0] $end
$var reg 1 F int_dis $end
$var reg 1 E int_en $end
$var reg 8 | licznik_wartosc [7:0] $end
$var reg 2 } nr_P_DDRx [1:0] $end
$var reg 2 ~ nr_P_PINx [1:0] $end
$var reg 2 !" nr_P_PORTx [1:0] $end
$var reg 3 "" nr_Rx [2:0] $end
$var reg 1 B skok_ID $end
$var reg 1 A skok_pc_ID $end
$var reg 8 #" wartosc_IM [7:0] $end
$var reg 1 4 wr_DDRx $end
$var reg 1 3 wr_MEM $end
$var reg 1 2 wr_PORTx $end
$var reg 1 1 wr_Rx $end
$scope begin ID_always $end
$upscope $end
$upscope $end
$scope module u_akumulator $end
$var wire 1 a A_ce $end
$var wire 1 ' clk $end
$var wire 8 $" out [7:0] $end
$var wire 1 %" rst $end
$var wire 8 &" a [7:0] $end
$var parameter 32 '" ALU_rozm_data $end
$var reg 8 (" akum [7:0] $end
$scope begin always_A $end
$upscope $end
$upscope $end
$scope module u_alu $end
$var wire 1 H C $end
$var wire 1 T OV $end
$var wire 8 )" a [7:0] $end
$var wire 4 *" alu_op [3:0] $end
$var wire 8 +" b [7:0] $end
$var wire 1 - Z $end
$var wire 1 , S $end
$var wire 1 K P $end
$var wire 1 \ C_in $end
$var parameter 32 ," ALU_rozm_data $end
$var reg 1 -" carry $end
$var reg 8 ." out [7:0] $end
$scope begin blockName $end
$upscope $end
$upscope $end
$scope module u_flagi $end
$var wire 1 h C_OV_en $end
$var wire 1 g C_OV_kasowanie $end
$var wire 1 H C_in $end
$var wire 1 T OV_in $end
$var wire 1 K P_in $end
$var wire 1 , S_in $end
$var wire 1 - Z_in $end
$var wire 1 ' clk $end
$var wire 1 a flagi_en $end
$var wire 1 /" rst $end
$var wire 1 c Z_out $end
$var wire 1 d S_out $end
$var wire 1 e P_out $end
$var wire 1 f OV_out $end
$var wire 1 \ C_out $end
$var reg 8 0" rejestr_flag [7:0] $end
$upscope $end
$scope module u_licznik $end
$var wire 1 ' clk $end
$var wire 1 Y licznik_flaga_clear $end
$var wire 1 1" rst $end
$var wire 8 2" wartosc [7:0] $end
$var wire 1 0 zapisz_H $end
$var wire 1 / zapisz_L $end
$var wire 1 . zapisz_ctr $end
$var reg 1 3" int_enable $end
$var reg 16 4" licznik [15:0] $end
$var reg 1 5" licznik_enable $end
$var reg 1 X licznik_flaga $end
$var reg 1 V licznik_int $end
$var reg 16 6" preskaler [15:0] $end
$var reg 16 7" preskaler_cnt [15:0] $end
$var reg 1 8" tryb $end
$var reg 16 9" wartosc_max [15:0] $end
$upscope $end
$scope module u_pamiec_data $end
$var wire 8 :" adres [7:0] $end
$var wire 1 ' clk $end
$var wire 8 ;" dane [7:0] $end
$var wire 1 <" rst $end
$var wire 1 3 wr_mem $end
$var wire 8 =" out [7:0] $end
$var parameter 32 >" ADDR_WIDTH_MEM $end
$var parameter 32 ?" DATA_WIDTH_MEM $end
$var parameter 32 @" DATA_WIDTH_STRONY $end
$var parameter 44 A" MEM_SIZE_Fizycznie $end
$var reg 4 B" strona [3:0] $end
$scope begin always_mem $end
$upscope $end
$upscope $end
$scope module u_pamiec_prog $end
$var wire 16 C" out [15:0] $end
$var wire 8 D" a [7:0] $end
$var parameter 32 E" ADDR_WIDTH $end
$var parameter 32 F" DATA_WIDTH $end
$upscope $end
$scope module u_pc $end
$var wire 1 I ID_rst $end
$var wire 8 G" adres_skok_pc [7:0] $end
$var wire 1 ' clk $end
$var wire 1 E reti_int_en $end
$var wire 1 H" rst $end
$var wire 1 B skok_pc $end
$var wire 1 A skok_pc_stos $end
$var wire 8 I" adres_skok_pc_stos [7:0] $end
$var parameter 32 J" W $end
$var reg 8 K" PC_count [7:0] $end
$scope begin LicznikRozkazow $end
$upscope $end
$upscope $end
$scope module u_pc_stos $end
$var wire 1 ' clk $end
$var wire 8 L" data_in [7:0] $end
$var wire 1 9 pop $end
$var wire 1 8 push $end
$var wire 1 M" rst $end
$var parameter 32 N" STOS_Rozm $end
$var parameter 32 O" STOS_data_rozm $end
$var reg 8 P" data_out [7:0] $end
$var reg 1 ; empty $end
$var reg 1 : full $end
$var reg 3 Q" stos_ptr [2:0] $end
$scope begin stos $end
$scope begin $ivl_for_loop1 $end
$var integer 32 R" i [31:0] $end
$upscope $end
$upscope $end
$upscope $end
$scope module u_port $end
$var wire 1 ' clk $end
$var wire 8 S" dane [7:0] $end
$var wire 8 T" in_out_A [7:0] $end
$var wire 8 U" in_out_B [7:0] $end
$var wire 2 V" nr_P_DDRx [1:0] $end
$var wire 2 W" nr_P_PINx [1:0] $end
$var wire 2 X" nr_P_PORTx [1:0] $end
$var wire 8 Y" out [7:0] $end
$var wire 1 Z" rst $end
$var wire 1 4 wr_DDRx $end
$var wire 1 2 wr_PORTx $end
$var wire 8 [" in_out_C [7:0] $end
$var parameter 32 \" Port_rozm_data $end
$scope begin alwasyDDR $end
$upscope $end
$scope begin alwaysPORT $end
$upscope $end
$upscope $end
$scope module u_przerwanie $end
$var wire 1 ' clk $end
$var wire 1 ( ext_int $end
$var wire 1 F int_disable $end
$var wire 1 E int_enable $end
$var wire 1 ]" rst $end
$var wire 1 V timer_int $end
$var reg 1 ^" ext_int_prev $end
$var reg 1 _" int_a $end
$var reg 1 `" int_b $end
$var reg 8 a" int_vector [7:0] $end
$var reg 1 G przerwanie $end
$var reg 1 b" przerwanie_en $end
$var reg 1 c" timer_int_prev $end
$upscope $end
$scope module u_rejestry $end
$var wire 1 ' clk $end
$var wire 8 d" dane [7:0] $end
$var wire 3 e" nr_Rx [2:0] $end
$var wire 8 f" out [7:0] $end
$var wire 1 g" rst $end
$var wire 1 1 wr_Rx $end
$var parameter 32 h" Rx_liczba $end
$var parameter 32 i" Rx_rozm_data $end
$scope begin always_Rx $end
$scope begin $ivl_for_loop0 $end
$var integer 32 j" i [31:0] $end
$upscope $end
$upscope $end
$upscope $end
$scope module u_stos $end
$var wire 1 ' clk $end
$var wire 8 k" data_in [7:0] $end
$var wire 1 7 pop $end
$var wire 1 6 push $end
$var wire 1 l" rst $end
$var parameter 32 m" STOS_Rozm $end
$var parameter 32 n" STOS_data_rozm $end
$var reg 8 o" data_out [7:0] $end
$var reg 1 > empty $end
$var reg 1 = full $end
$var reg 3 p" stos_ptr [2:0] $end
$scope begin stos $end
$scope begin $ivl_for_loop1 $end
$var integer 32 q" i [31:0] $end
$upscope $end
$upscope $end
$upscope $end
$scope begin always_MUX_IM_Rx_MEM_PORT $end
$upscope $end
$upscope $end
$upscope $end
$enddefinitions $end
$comment Show the parameter values. $end
$dumpall
b1000 n"
b101 m"
b1000 i"
b1000 h"
b1000 \"
b1000 O"
b101 N"
b1000 J"
b10000 F"
b1000 E"
b1000000000000 A"
b100 @"
b1000 ?"
b1000 >"
b1000 ,"
b1000 '"
b10000 v
b1000 u
b1000 t
b101 o
b1000 n
b10000 m
b1000 l
b1000 k
b1000 j
b100 i
$end
#0
$dumpvars
b0 q"
bx p"
b0 o"
xl"
bx k"
b0 j"
xg"
bx f"
b0 e"
bx d"
xc"
xb"
b0 a"
x`"
x_"
x^"
x]"
bx ["
xZ"
bx Y"
b0 X"
b0 W"
b0 V"
bx U"
bx T"
bx S"
b0 R"
bx Q"
b0 P"
xM"
bx L"
bx K"
b0 I"
xH"
b0 G"
bx D"
bx C"
bx B"
bx ="
x<"
bx ;"
b0 :"
bx 9"
x8"
bx 7"
bx 6"
x5"
bx 4"
x3"
b0 2"
x1"
bx 0"
x/"
b0 ."
0-"
b0 +"
b0 *"
bx )"
bx ("
b0 &"
x%"
bx $"
b0 #"
b0 ""
b0 !"
b0 ~
b0 }
b0 |
bx {
b0 z
b0 y
b0 x
b0 w
b0 s
bx r
b0 q
xp
0h
0g
xf
xe
xd
xc
b0 b
0a
b0 `
b0 _
b0 ^
b0 ]
x\
bx [
0Z
0Y
0X
bx W
0V
0U
0T
b0 S
b0 R
b0 Q
b0 P
bx O
bx N
bx M
b0 L
1K
bx J
0I
0H
0G
0F
0E
b0 D
bx C
0B
0A
b0 @
b0 ?
x>
x=
b0 <
x;
x:
09
08
07
06
b0 5
04
03
02
01
00
0/
0.
1-
0,
bx +
bx *
x)
x(
1'
bx &
bx %
bx $
x#
bx "
bx !
$end
#5000
0'
#10000
0c"
1'
#15000
0'
#20000
0^"
0H"
0M"
0]"
01"
0g"
0<"
0Z"
0l"
0%"
0/"
1'
b0 &
b0 %
0(
1)
#25000
0'
#30000
b0 N
b0 Y"
b0 $
b0 W
b0 ["
b0 "
b0 +
b0 U"
b0 !
b0 *
b0 T"
b1000 ^
b1000 z
b1000 G"
1B
b100 {
0\
0d
0c
0f
0e
b0 [
b0 $"
b0 ("
b0 )"
b0 ;"
b0 S"
b0 d"
b0 k"
1>
0=
b0 p"
b0 B"
b0 M
b0 f"
1;
0:
b0 Q"
b10000000001000 C
b10000000001000 r
b10000000001000 C"
b0 J
b0 D"
b0 K"
b0 L"
0p
0#
b0 0"
b1111111111111111 9"
03"
08"
05"
b1 6"
b0 7"
b0 4"
0`"
0_"
0b"
b101 q"
b1000 j"
b101 R"
1H"
1M"
1]"
11"
1g"
1<"
1Z"
1l"
1%"
1/"
1'
0)
#35000
0'
#40000
0-
b1010 L
b1010 &"
b1010 ."
b1010 q
b1010 +"
1a
b1010 @
b1010 #"
b0 ^
b0 z
b0 G"
0B
b1 {
b101100001010 C
b101100001010 r
b101100001010 C"
b1000 J
b1000 D"
b1000 K"
b1000 L"
0H"
0M"
0]"
01"
0g"
0<"
0Z"
0l"
0%"
0/"
1'
1)
#45000
0'
#50000
1-
b0 L
b0 &"
b0 ."
b0 q
b0 +"
16
0a
b0 @
b0 #"
b10100 {
1e
b1010 [
b1010 $"
b1010 ("
b1010 )"
b1010 ;"
b1010 S"
b1010 d"
b1010 k"
b1010000000000000 C
b1010000000000000 r
b1010000000000000 C"
b1001 J
b1001 D"
b1001 K"
b1001 L"
b1 0"
1'
#55000
0'
#60000
0K
0-
b1011 L
b1011 &"
b1011 ."
b1011 q
b1011 +"
1a
b1011 @
b1011 #"
06
b1 {
0>
b1 p"
b101100001011 C
b101100001011 r
b101100001011 C"
b1010 J
b1010 D"
b1010 K"
b1010 L"
1'
#65000
0'
#70000
1K
1-
b0 L
b0 &"
b0 ."
b0 q
b0 +"
16
0a
b0 @
b0 #"
b10100 {
0e
b1011 [
b1011 $"
b1011 ("
b1011 )"
b1011 ;"
b1011 S"
b1011 d"
b1011 k"
b1010000000000000 C
b1010000000000000 r
b1010000000000000 C"
b1011 J
b1011 D"
b1011 K"
b1011 L"
b0 0"
1'
#75000
0'
#80000
0-
b1100 L
b1100 &"
b1100 ."
b1100 q
b1100 +"
1a
b1100 @
b1100 #"
06
b1 {
b10 p"
b101100001100 C
b101100001100 r
b101100001100 C"
b1100 J
b1100 D"
b1100 K"
b1100 L"
1'
#85000
0'
#90000
1-
b0 L
b0 &"
b0 ."
b0 q
b0 +"
16
0a
b0 @
b0 #"
b10100 {
1e
b1100 [
b1100 $"
b1100 ("
b1100 )"
b1100 ;"
b1100 S"
b1100 d"
b1100 k"
b1010000000000000 C
b1010000000000000 r
b1010000000000000 C"
b1101 J
b1101 D"
b1101 K"
b1101 L"
b1 0"
1'
#95000
0'
#100000
0K
0-
b1101 L
b1101 &"
b1101 ."
b1101 q
b1101 +"
1a
b1101 @
b1101 #"
06
b1 {
b11 p"
b101100001101 C
b101100001101 r
b101100001101 C"
b1110 J
b1110 D"
b1110 K"
b1110 L"
1'
#105000
0'
#110000
1K
1-
b0 L
b0 &"
b0 ."
b0 q
b0 +"
16
0a
b0 @
b0 #"
b10100 {
0e
b1101 [
b1101 $"
b1101 ("
b1101 )"
b1101 ;"
b1101 S"
b1101 d"
b1101 k"
b1010000000000000 C
b1010000000000000 r
b1010000000000000 C"
b1111 J
b1111 D"
b1111 K"
b1111 L"
b0 0"
1'
#115000
0'
#120000
0K
0-
b1110 L
b1110 &"
b1110 ."
b1110 q
b1110 +"
1a
b1110 @
b1110 #"
06
b1 {
b100 p"
b101100001110 C
b101100001110 r
b101100001110 C"
b10000 J
b10000 D"
b10000 K"
b10000 L"
1'
#125000
0'
#130000
1K
1-
b0 L
b0 &"
b0 ."
b0 q
b0 +"
16
0a
b0 @
b0 #"
b10100 {
b1110 [
b1110 $"
b1110 ("
b1110 )"
b1110 ;"
b1110 S"
b1110 d"
b1110 k"
b1010000000000000 C
b1010000000000000 r
b1010000000000000 C"
b10001 J
b10001 D"
b10001 K"
b10001 L"
1'
#135000
0'
#140000
0K
0-
b1110 L
b1110 &"
b1110 ."
b1110 q
b1110 +"
1a
b1110 @
b1110 #"
06
b1 {
1=
b101 p"
b101100001110 C
b101100001110 r
b101100001110 C"
b10010 J
b10010 D"
b10010 K"
b10010 L"
1'
#145000
0'
#150000
1K
1-
b0 L
b0 &"
b0 ."
b0 q
b0 +"
1F
1Z
b110 ^
b110 z
b110 G"
1B
0a
b0 @
b0 #"
b10100 {
b1010000000000000 C
b1010000000000000 r
b1010000000000000 C"
b10011 J
b10011 D"
b10011 K"
b10011 L"
1'
#155000
0'
#160000
0Z
0F
b110 ^
b110 z
b110 G"
1B
b100 {
b10000000000110 C
b10000000000110 r
b10000000000110 C"
b110 J
b110 D"
b110 K"
b110 L"
1p
1#
1'
#165000
0'
#170000
1'
#175000
0'
#180000
1_"
1^"
1'
1(
#185000
0'
#190000
1'
#195000
0'
#200000
1'
#205000
0'
#210000
1'
#215000
0'
#220000
1'
#225000
0'
#230000
0^"
1'
0(
