mikroProcesor/tb/procesor_tb.vcd
$date
	Fri Jan 16 20:18:32 2026
$end
$version
	Icarus Verilog
$end
$timescale
	1ps
$end
$scope module procesor_tb $end
$var wire 8 ! SW1 [7:0] $end
$var wire 8 " SW2 [7:0] $end
$var wire 8 # LED [7:0] $end
$var reg 8 $ SW_A [7:0] $end
$var reg 8 % SW_B [7:0] $end
$var reg 1 & clk $end
$var reg 1 ' ext_przerwanie $end
$var reg 1 ( rst $end
$scope module u_procesor $end
$var wire 1 ( button_c $end
$var wire 1 & clk $end
$var wire 8 ) in_out_A [7:0] $end
$var wire 8 * in_out_B [7:0] $end
$var wire 1 ' przerwanie_zewnetrzne $end
$var wire 1 + znak_S $end
$var wire 1 , zero_Z $end
$var wire 1 - zapisz_control $end
$var wire 1 . zapisz_Low $end
$var wire 1 / zapisz_High $end
$var wire 1 0 wr_Rx $end
$var wire 1 1 wr_PORTx $end
$var wire 1 2 wr_MEM $end
$var wire 1 3 wr_DDRx $end
$var wire 8 4 wartosc_do_licznika [7:0] $end
$var wire 1 5 stos_push $end
$var wire 1 6 stos_pop $end
$var wire 1 7 stos_pc_push $end
$var wire 1 8 stos_pc_pop $end
$var wire 1 9 stos_pc_full $end
$var wire 1 : stos_pc_empty $end
$var wire 8 ; stos_pc_data [7:0] $end
$var wire 1 < stos_full $end
$var wire 1 = stos_empty $end
$var wire 8 > stos_data [7:0] $end
$var wire 8 ? stala_zmienna [7:0] $end
$var wire 1 @ skok_stos $end
$var wire 1 A skok $end
$var wire 16 B rozkaz [15:0] $end
$var wire 8 C przerwanie_wektor [7:0] $end
$var wire 1 D przerwanie_on $end
$var wire 1 E przerwanie_off $end
$var wire 1 F przerw $end
$var wire 1 G przepelnienie_C $end
$var wire 1 H pc_rst $end
$var wire 8 I pc_licznik [7:0] $end
$var wire 1 J parzystosc_P $end
$var wire 8 K out_alu [7:0] $end
$var wire 8 L out_Rx [7:0] $end
$var wire 8 M out_Port [7:0] $end
$var wire 8 N out_MEM [7:0] $end
$var wire 3 O numer_Rx [2:0] $end
$var wire 2 P nr_PORTx [1:0] $end
$var wire 2 Q nr_PINx [1:0] $end
$var wire 2 R nr_DDRx [1:0] $end
$var wire 1 S nadmiar_OV $end
$var wire 1 T mux_address $end
$var wire 1 U licznik_przerwanie $end
$var wire 8 V in_out_C [7:0] $end
$var wire 1 W flaga_licznik $end
$var wire 1 X flaga_clear_licznik $end
$var wire 8 Y data [7:0] $end
$var wire 1 Z carry $end
$var wire 4 [ alu_op [3:0] $end
$var wire 8 \ adres_skoku [7:0] $end
$var wire 8 ] address_wybor [7:0] $end
$var wire 8 ^ address [7:0] $end
$var wire 1 _ a_ce $end
$var wire 3 ` MUX_im_rx_mem_port [2:0] $end
$var wire 1 a ID_Z $end
$var wire 1 b ID_S $end
$var wire 1 c ID_P $end
$var wire 1 d ID_OV $end
$var wire 1 e ID_C_OV_kasowanie $end
$var wire 1 f ID_C_OV_en $end
$var parameter 32 g DATA_szerokosc_strony $end
$var parameter 32 h P_MEM_address $end
$var parameter 32 i P_PROC_data $end
$var parameter 32 j P_PROG_addres $end
$var parameter 32 k P_PROG_data $end
$var parameter 32 l P_Rx_ILE $end
$var parameter 32 m P_STOS_depth $end
$var reg 8 n mux_I_R_M_P [7:0] $end
$scope module u_ID $end
$var wire 16 o rozkaz [15:0] $end
$var wire 1 F jest_przerwanie $end
$var wire 8 p int_vec [7:0] $end
$var wire 1 a Z_in $end
$var wire 1 b S_in $end
$var wire 1 c P_in $end
$var wire 1 d OV_in $end
$var wire 1 9 ID_stos_pc_full $end
$var wire 1 : ID_stos_pc_empty $end
$var wire 1 < ID_stos_full $end
$var wire 1 = ID_stos_empty $end
$var wire 1 W ID_flaga_licznik $end
$var wire 1 Z C_in $end
$var parameter 32 q ID_rozm_adres $end
$var parameter 32 r ID_rozm_dana $end
$var parameter 32 s I_WIDTH $end
$var reg 4 t ALU_op [3:0] $end
$var reg 1 _ A_ce $end
$var reg 1 f C_OV_en $end
$var reg 1 e C_OV_kasowanie $end
$var reg 1 X ID_flaga_clear_licznik $end
$var reg 1 6 ID_pop $end
$var reg 1 8 ID_pop_pc $end
$var reg 1 5 ID_push $end
$var reg 1 7 ID_push_pc $end
$var reg 1 H ID_rst $end
$var reg 1 / ID_zapisz_H $end
$var reg 1 . ID_zapisz_L $end
$var reg 1 - ID_zapisz_control $end
$var reg 3 u MUX_IM_Rx_MEM_PORT [2:0] $end
$var reg 1 T MUX_adres $end
$var reg 8 v adres [7:0] $end
$var reg 8 w adres_skok_ID [7:0] $end
$var reg 1 x flagi_en $end
$var reg 5 y instrukcja [4:0] $end
$var reg 1 E int_dis $end
$var reg 1 D int_en $end
$var reg 8 z licznik_wartosc [7:0] $end
$var reg 2 { nr_P_DDRx [1:0] $end
$var reg 2 | nr_P_PINx [1:0] $end
$var reg 2 } nr_P_PORTx [1:0] $end
$var reg 3 ~ nr_Rx [2:0] $end
$var reg 1 A skok_ID $end
$var reg 1 @ skok_pc_ID $end
$var reg 8 !" wartosc_IM [7:0] $end
$var reg 1 3 wr_DDRx $end
$var reg 1 2 wr_MEM $end
$var reg 1 1 wr_PORTx $end
$var reg 1 0 wr_Rx $end
$scope begin ID_always $end
$upscope $end
$upscope $end
$scope module u_akumulator $end
$var wire 1 _ A_ce $end
$var wire 1 & clk $end
$var wire 8 "" out [7:0] $end
$var wire 1 #" rst $end
$var wire 8 $" a [7:0] $end
$var parameter 32 %" ALU_rozm_data $end
$var reg 8 &" akum [7:0] $end
$scope begin always_A $end
$upscope $end
$upscope $end
$scope module u_alu $end
$var wire 1 G C $end
$var wire 1 S OV $end
$var wire 8 '" a [7:0] $end
$var wire 4 (" alu_op [3:0] $end
$var wire 8 )" b [7:0] $end
$var wire 1 , Z $end
$var wire 1 + S $end
$var wire 1 J P $end
$var wire 1 Z C_in $end
$var parameter 32 *" ALU_rozm_data $end
$var reg 1 +" carry $end
$var reg 8 ," out [7:0] $end
$scope begin blockName $end
$upscope $end
$upscope $end
$scope module u_flagi $end
$var wire 1 f C_OV_en $end
$var wire 1 e C_OV_kasowanie $end
$var wire 1 G C_in $end
$var wire 1 S OV_in $end
$var wire 1 J P_in $end
$var wire 1 + S_in $end
$var wire 1 , Z_in $end
$var wire 1 & clk $end
$var wire 1 _ flagi_en $end
$var wire 1 -" rst $end
$var wire 1 a Z_out $end
$var wire 1 b S_out $end
$var wire 1 c P_out $end
$var wire 1 d OV_out $end
$var wire 1 Z C_out $end
$var reg 8 ." rejestr_flag [7:0] $end
$upscope $end
$scope module u_licznik $end
$var wire 1 & clk $end
$var wire 1 X licznik_flaga_clear $end
$var wire 1 /" rst $end
$var wire 8 0" wartosc [7:0] $end
$var wire 1 / zapisz_H $end
$var wire 1 . zapisz_L $end
$var wire 1 - zapisz_ctr $end
$var reg 1 1" int_enable $end
$var reg 16 2" licznik [15:0] $end
$var reg 1 3" licznik_enable $end
$var reg 1 W licznik_flaga $end
$var reg 1 U licznik_int $end
$var reg 16 4" preskaler [15:0] $end
$var reg 16 5" preskaler_cnt [15:0] $end
$var reg 1 6" tryb $end
$var reg 16 7" wartosc_max [15:0] $end
$upscope $end
$scope module u_pamiec_data $end
$var wire 8 8" adres [7:0] $end
$var wire 1 & clk $end
$var wire 8 9" dane [7:0] $end
$var wire 1 :" rst $end
$var wire 1 2 wr_mem $end
$var wire 8 ;" out [7:0] $end
$var parameter 32 <" ADDR_WIDTH_MEM $end
$var parameter 32 =" DATA_WIDTH_MEM $end
$var parameter 32 >" DATA_WIDTH_STRONY $end
$var parameter 44 ?" MEM_SIZE_Fizycznie $end
$var reg 4 @" strona [3:0] $end
$scope begin always_mem $end
$upscope $end
$upscope $end
$scope module u_pamiec_prog $end
$var wire 16 A" out [15:0] $end
$var wire 8 B" a [7:0] $end
$var parameter 32 C" ADDR_WIDTH $end
$var parameter 32 D" DATA_WIDTH $end
$upscope $end
$scope module u_pc $end
$var wire 1 H ID_rst $end
$var wire 8 E" adres_skok_pc [7:0] $end
$var wire 1 & clk $end
$var wire 1 D reti_int_en $end
$var wire 1 F" rst $end
$var wire 1 A skok_pc $end
$var wire 1 @ skok_pc_stos $end
$var wire 8 G" adres_skok_pc_stos [7:0] $end
$var parameter 32 H" W $end
$var reg 8 I" PC_count [7:0] $end
$scope begin LicznikRozkazow $end
$upscope $end
$upscope $end
$scope module u_pc_stos $end
$var wire 1 & clk $end
$var wire 8 J" data_in [7:0] $end
$var wire 1 8 pop $end
$var wire 1 7 push $end
$var wire 1 K" rst $end
$var parameter 32 L" STOS_Rozm $end
$var parameter 32 M" STOS_data_rozm $end
$var reg 8 N" data_out [7:0] $end
$var reg 1 : empty $end
$var reg 1 9 full $end
$var reg 3 O" stos_ptr [2:0] $end
$scope begin stos $end
$scope begin $ivl_for_loop1 $end
$var integer 32 P" i [31:0] $end
$upscope $end
$upscope $end
$upscope $end
$scope module u_port $end
$var wire 1 & clk $end
$var wire 8 Q" dane [7:0] $end
$var wire 8 R" in_out_A [7:0] $end
$var wire 8 S" in_out_B [7:0] $end
$var wire 2 T" nr_P_DDRx [1:0] $end
$var wire 2 U" nr_P_PINx [1:0] $end
$var wire 2 V" nr_P_PORTx [1:0] $end
$var wire 8 W" out [7:0] $end
$var wire 1 X" rst $end
$var wire 1 3 wr_DDRx $end
$var wire 1 1 wr_PORTx $end
$var wire 8 Y" in_out_C [7:0] $end
$var parameter 32 Z" Port_rozm_data $end
$scope begin alwasyDDR $end
$upscope $end
$scope begin alwaysPORT $end
$upscope $end
$upscope $end
$scope module u_przerwanie $end
$var wire 1 & clk $end
$var wire 1 ' ext_int $end
$var wire 1 E int_disable $end
$var wire 1 D int_enable $end
$var wire 1 [" rst $end
$var wire 1 U timer_int $end
$var reg 1 \" ext_int_prev $end
$var reg 1 ]" int_a $end
$var reg 1 ^" int_b $end
$var reg 8 _" int_vector [7:0] $end
$var reg 1 F przerwanie $end
$var reg 1 `" przerwanie_en $end
$var reg 1 a" timer_int_prev $end
$upscope $end
$scope module u_rejestry $end
$var wire 1 & clk $end
$var wire 8 b" dane [7:0] $end
$var wire 3 c" nr_Rx [2:0] $end
$var wire 8 d" out [7:0] $end
$var wire 1 e" rst $end
$var wire 1 0 wr_Rx $end
$var parameter 32 f" Rx_liczba $end
$var parameter 32 g" Rx_rozm_data $end
$scope begin always_Rx $end
$scope begin $ivl_for_loop0 $end
$var integer 32 h" i [31:0] $end
$upscope $end
$upscope $end
$upscope $end
$scope module u_stos $end
$var wire 1 & clk $end
$var wire 8 i" data_in [7:0] $end
$var wire 1 6 pop $end
$var wire 1 5 push $end
$var wire 1 j" rst $end
$var parameter 32 k" STOS_Rozm $end
$var parameter 32 l" STOS_data_rozm $end
$var reg 8 m" data_out [7:0] $end
$var reg 1 = empty $end
$var reg 1 < full $end
$var reg 5 n" stos_ptr [4:0] $end
$scope begin stos $end
$scope begin $ivl_for_loop1 $end
$var integer 32 o" i [31:0] $end
$upscope $end
$upscope $end
$upscope $end
$scope begin always_MUX_IM_Rx_MEM_PORT $end
$upscope $end
$upscope $end
$upscope $end
$enddefinitions $end
$comment Show the parameter values. $end
$dumpall
b1000 l"
b100000 k"
b1000 g"
b1000 f"
b1000 Z"
b1000 M"
b101 L"
b1000 H"
b10000 D"
b1000 C"
b1000000000000 ?"
b100 >"
b1000 ="
b1000 <"
b1000 *"
b1000 %"
b10000 s
b1000 r
b1000 q
b100000 m
b1000 l
b10000 k
b1000 j
b1000 i
b1000 h
b100 g
$end
#0
$dumpvars
b0 o"
bx n"
b0 m"
xj"
bx i"
b0 h"
xe"
bx d"
b0 c"
bx b"
xa"
x`"
b0 _"
x^"
x]"
x\"
x["
bx Y"
xX"
bx W"
b0 V"
b0 U"
b0 T"
bx S"
bx R"
bx Q"
b0 P"
bx O"
b0 N"
xK"
bx J"
bx I"
b0 G"
xF"
b0 E"
bx B"
bx A"
bx @"
bx ;"
x:"
bx 9"
b0 8"
bx 7"
x6"
bx 5"
bx 4"
x3"
bx 2"
x1"
b0 0"
x/"
bx ."
x-"
b0 ,"
0+"
b0 )"
b0 ("
bx '"
bx &"
b0 $"
x#"
bx ""
b0 !"
b0 ~
b0 }
b0 |
b0 {
b0 z
bx y
xx
b0 w
b0 v
b0 u
b0 t
b0 p
bx o
b0 n
0f
0e
xd
xc
xb
xa
b0 `
0_
b0 ^
b0 ]
b0 \
b0 [
xZ
bx Y
0X
0W
bx V
0U
0T
0S
b0 R
b0 Q
b0 P
b0 O
bx N
bx M
bx L
b0 K
1J
bx I
0H
0G
0F
0E
0D
b0 C
bx B
0A
0@
b0 ?
b0 >
x=
x<
b0 ;
x:
x9
08
07
06
05
b0 4
03
02
01
00
0/
0.
0-
1,
0+
bx *
bx )
x(
x'
1&
bx %
bx $
bx #
bx "
bx !
$end
#5000
0&
#10000
0a"
1&
#15000
0&
#20000
0\"
0F"
0K"
0["
0/"
0e"
0:"
0X"
0j"
0#"
0-"
1&
b0 %
b0 $
0'
1(
#25000
0&
#30000
b0 M
b0 W"
b0 #
b0 V
b0 Y"
b0 "
b0 *
b0 S"
b0 !
b0 )
b0 R"
b110 \
b110 w
b110 E"
1A
b100 y
0Z
0b
0a
0d
0c
b0 Y
b0 ""
b0 &"
b0 '"
b0 9"
b0 Q"
b0 b"
b0 i"
1=
0<
b0 n"
b0 @"
b0 L
b0 d"
1:
09
b0 O"
b10000000000110 B
b10000000000110 o
b10000000000110 A"
b0 I
b0 B"
b0 I"
b0 J"
b0 ."
b1111111111111111 7"
01"
06"
03"
b1 4"
b0 5"
b0 2"
0^"
0]"
0`"
b100000 o"
b1000 h"
b101 P"
1F"
1K"
1["
1/"
1e"
1:"
1X"
1j"
1#"
1-"
1&
0(
#35000
0&
#40000
1D
b0 \
b0 w
b0 E"
0A
b11000 y
b1100000000000000 B
b1100000000000000 o
b1100000000000000 A"
b110 I
b110 B"
b110 I"
b110 J"
0F"
0K"
0["
0/"
0e"
0:"
0X"
0j"
0#"
0-"
1&
1(
#45000
0&
#50000
1/
0D
b11110 y
b1111000000000000 B
b1111000000000000 o
b1111000000000000 A"
b111 I
b111 B"
b111 I"
b111 J"
1`"
1&
#55000
0&
#60000
1.
b1010 4
b1010 z
b1010 0"
0/
b11011 y
b1101100000001010 B
b1101100000001010 o
b1101100000001010 A"
b1000 I
b1000 B"
b1000 I"
b1000 J"
b11111111 7"
1&
#65000
0&
#70000
1-
0.
b10000010 4
b10000010 z
b10000010 0"
b11101 y
b1110100010000010 B
b1110100010000010 o
b1110100010000010 A"
b1001 I
b1001 B"
b1001 I"
b1001 J"
b1010 7"
1&
#75000
0&
#80000
0J
0,
b1100100 K
b1100100 $"
b1100100 ,"
b1100100 n
b1100100 )"
1_
b1100100 ?
b1100100 !"
0-
b0 4
b0 z
b0 0"
b1 y
b101101100100 B
b101101100100 o
b101101100100 A"
b1010 I
b1010 B"
b1010 I"
b1010 J"
b1000 4"
13"
1&
#85000
0&
#90000
1J
1,
b0 K
b0 $"
b0 ,"
b0 n
b0 )"
10
0_
b0 ?
b0 !"
b11 y
b1100100 Y
b1100100 ""
b1100100 &"
b1100100 '"
b1100100 9"
b1100100 Q"
b1100100 b"
b1100100 i"
b1100100000000 B
b1100100000000 o
b1100100000000 A"
b1011 I
b1011 B"
b1011 I"
b1011 J"
b1 5"
1&
#95000
0&
#100000
0,
b101 K
b101 $"
b101 ,"
b101 n
b101 )"
1_
b101 ?
b101 !"
00
b1 y
b1100100 L
b1100100 d"
b101100000101 B
b101100000101 o
b101100000101 A"
b1100 I
b1100 B"
b1100 I"
b1100 J"
b10 5"
1&
#105000
0&
#110000
1,
b0 K
b0 $"
b0 ,"
b0 n
b0 )"
b0 L
b0 d"
b1 O
b1 ~
b1 c"
10
0_
b0 ?
b0 !"
b11 y
1c
b101 Y
b101 ""
b101 &"
b101 '"
b101 9"
b101 Q"
b101 b"
b101 i"
b1100100000001 B
b1100100000001 o
b1100100000001 A"
b1101 I
b1101 B"
b1101 I"
b1101 J"
b1 ."
b11 5"
1&
#115000
0&
#120000
0,
b1010 K
b1010 $"
b1010 ,"
b1010 n
b1010 )"
1_
b1010 ?
b1010 !"
00
b0 O
b0 ~
b0 c"
b1 y
b1100100 L
b1100100 d"
b101100001010 B
b101100001010 o
b101100001010 A"
b1110 I
b1110 B"
b1110 I"
b1110 J"
1]"
1\"
b100 5"
1&
1'
#125000
0&
#130000
1,
b0 K
b0 $"
b0 ,"
b0 n
b0 )"
b10 \
b10 w
b10 E"
17
1A
1E
0_
b0 ?
b0 !"
b11 y
b1010 Y
b1010 ""
b1010 &"
b1010 '"
b1010 9"
b1010 Q"
b1010 b"
b1010 i"
b1100100000111 B
b1100100000111 o
b1100100000111 A"
b1111 I
b1111 B"
b1111 I"
b1111 J"
b101 5"
0]"
b10 C
b10 p
b10 _"
1F
1&
#135000
0&
#140000
0E
07
b11001000 \
b11001000 w
b11001000 E"
1A
b100 y
0:
b1 O"
b10000011001000 B
b10000011001000 o
b10000011001000 A"
b10 I
b10 B"
b10 I"
b10 J"
0`"
b0 C
b0 p
b0 _"
0F
b110 5"
1&
#145000
0&
#150000
15
b0 \
b0 w
b0 E"
0A
b10100 y
b1010000000000000 B
b1010000000000000 o
b1010000000000000 A"
b11001000 I
b11001000 B"
b11001000 I"
b11001000 J"
b111 5"
1&
#155000
0&
#160000
1_
05
b1 y
0=
b1 n"
b101100000000 B
b101100000000 o
b101100000000 A"
b11001001 I
b11001001 B"
b11001001 I"
b11001001 J"
b0 5"
b1 2"
1&
#165000
0&
#170000
b0 L
b0 d"
b111 O
b111 ~
b111 c"
10
0_
b11 y
1a
b0 Y
b0 ""
b0 &"
b0 '"
b0 9"
b0 Q"
b0 b"
b0 i"
b1100100000111 B
b1100100000111 o
b1100100000111 A"
b11001010 I
b11001010 B"
b11001010 I"
b11001010 J"
b101 ."
b1 5"
0\"
1&
0'
#175000
0&
#180000
0,
b1010 K
b1010 $"
b1010 ,"
b1010 n
b1010 )"
b1010 >
b1010 m"
b100 `
b100 u
1_
16
00
b1100100 L
b1100100 d"
b0 O
b0 ~
b0 c"
b10101 y
b1010100000000000 B
b1010100000000000 o
b1010100000000000 A"
b11001011 I
b11001011 B"
b11001011 I"
b11001011 J"
b10 5"
1&
#185000
0&
#190000
1,
b0 K
b0 $"
b0 ,"
b1111 ;
b1111 G"
b1111 N"
b0 n
b0 )"
b0 >
b0 m"
1@
1A
18
1D
06
0_
b0 `
b0 u
b11010 y
0a
b1010 Y
b1010 ""
b1010 &"
b1010 '"
b1010 9"
b1010 Q"
b1010 b"
b1010 i"
1=
b0 n"
b1101000000000000 B
b1101000000000000 o
b1101000000000000 A"
b11001100 I
b11001100 B"
b11001100 I"
b11001100 J"
b1 ."
b11 5"
1&
#195000
0&
#200000
b0 ;
b0 G"
b0 N"
b0 L
b0 d"
b111 O
b111 ~
b111 c"
10
0D
0@
08
0A
b11 y
1:
b0 O"
b1100100000111 B
b1100100000111 o
b1100100000111 A"
b1111 I
b1111 B"
b1111 I"
b1111 J"
1`"
b100 5"
1&
#205000
0&
#210000
0J
0,
b1100100 K
b1100100 $"
b1100100 ,"
b1100100 n
b1100100 )"
1_
b1 `
b1 u
00
b0 O
b0 ~
b0 c"
b1 y
b1100100 L
b1100100 d"
b100100000000 B
b100100000000 o
b100100000000 A"
b10000 I
b10000 B"
b10000 I"
b10000 J"
b101 5"
1&
#215000
0&
#220000
0S
1J
0+
b101 n
b101 )"
b1101001 K
b1101001 $"
b1101001 ,"
1f
b101 L
b101 d"
b1 O
b1 ~
b1 c"
b100 [
b100 t
b100 ("
1_
b1 `
b1 u
b1001 y
0c
b1100100 Y
b1100100 ""
b1100100 &"
b1100100 '"
b1100100 9"
b1100100 Q"
b1100100 b"
b1100100 i"
b100100000000001 B
b100100000000001 o
b100100000000001 A"
b10001 I
b10001 B"
b10001 I"
b10001 J"
b110 5"
b0 ."
1&
#225000
0&
#230000
1,
b0 n
b0 )"
b0 K
b0 $"
b0 ,"
10
0f
b0 [
b0 t
b0 ("
0_
b0 `
b0 u
b1100100 L
b1100100 d"
b0 O
b0 ~
b0 c"
b11 y
1c
b1101001 Y
b1101001 ""
b1101001 &"
b1101001 '"
b1101001 9"
b1101001 Q"
b1101001 b"
b1101001 i"
b1100100000000 B
b1100100000000 o
b1100100000000 A"
b10010 I
b10010 B"
b10010 I"
b10010 J"
b1 ."
b111 5"
1&
#235000
0&
#240000
00
b11100 y
b1101001 L
b1101001 d"
b1110000000010101 B
b1110000000010101 o
b1110000000010101 A"
b10011 I
b10011 B"
b10011 I"
b10011 J"
b0 5"
b10 2"
1&
#245000
0&
#250000
b10011 \
b10011 w
b10011 E"
1A
b100 y
b10000000010011 B
b10000000010011 o
b10000000010011 A"
b10100 I
b10100 B"
b10100 I"
b10100 J"
b1 5"
1&
#255000
0&
#260000
b0 \
b0 w
b0 E"
0A
b11100 y
b1110000000010101 B
b1110000000010101 o
b1110000000010101 A"
b10011 I
b10011 B"
b10011 I"
b10011 J"
b10 5"
1&
#265000
0&
#270000
b10011 \
b10011 w
b10011 E"
1A
b100 y
b10000000010011 B
b10000000010011 o
b10000000010011 A"
b10100 I
b10100 B"
b10100 I"
b10100 J"
b11 5"
1&
#275000
0&
#280000
b0 \
b0 w
b0 E"
0A
b11100 y
b1110000000010101 B
b1110000000010101 o
b1110000000010101 A"
b10011 I
b10011 B"
b10011 I"
b10011 J"
b100 5"
1&
#285000
0&
#290000
b10011 \
b10011 w
b10011 E"
1A
b100 y
b10000000010011 B
b10000000010011 o
b10000000010011 A"
b10100 I
b10100 B"
b10100 I"
b10100 J"
b101 5"
1&
#295000
0&
#300000
b0 \
b0 w
b0 E"
0A
b11100 y
b1110000000010101 B
b1110000000010101 o
b1110000000010101 A"
b10011 I
b10011 B"
b10011 I"
b10011 J"
b110 5"
1&
#305000
0&
#310000
b10011 \
b10011 w
b10011 E"
1A
b100 y
b10000000010011 B
b10000000010011 o
b10000000010011 A"
b10100 I
b10100 B"
b10100 I"
b10100 J"
b111 5"
1&
#315000
0&
#320000
b0 \
b0 w
b0 E"
0A
b11100 y
b1110000000010101 B
b1110000000010101 o
b1110000000010101 A"
b10011 I
b10011 B"
b10011 I"
b10011 J"
b0 5"
b11 2"
1&
#325000
0&
#330000
b10011 \
b10011 w
b10011 E"
1A
b100 y
b10000000010011 B
b10000000010011 o
b10000000010011 A"
b10100 I
b10100 B"
b10100 I"
b10100 J"
b1 5"
1&
#335000
0&
#340000
b0 \
b0 w
b0 E"
0A
b11100 y
b1110000000010101 B
b1110000000010101 o
b1110000000010101 A"
b10011 I
b10011 B"
b10011 I"
b10011 J"
b10 5"
1&
#345000
0&
#350000
b10011 \
b10011 w
b10011 E"
1A
b100 y
b10000000010011 B
b10000000010011 o
b10000000010011 A"
b10100 I
b10100 B"
b10100 I"
b10100 J"
b11 5"
1&
#355000
0&
#360000
b0 \
b0 w
b0 E"
0A
b11100 y
b1110000000010101 B
b1110000000010101 o
b1110000000010101 A"
b10011 I
b10011 B"
b10011 I"
b10011 J"
b100 5"
1&
#365000
0&
#370000
b10011 \
b10011 w
b10011 E"
1A
b100 y
b10000000010011 B
b10000000010011 o
b10000000010011 A"
b10100 I
b10100 B"
b10100 I"
b10100 J"
b101 5"
1&
#375000
0&
#380000
b0 \
b0 w
b0 E"
0A
b11100 y
b1110000000010101 B
b1110000000010101 o
b1110000000010101 A"
b10011 I
b10011 B"
b10011 I"
b10011 J"
b110 5"
1&
#385000
0&
#390000
b10011 \
b10011 w
b10011 E"
1A
b100 y
b10000000010011 B
b10000000010011 o
b10000000010011 A"
b10100 I
b10100 B"
b10100 I"
b10100 J"
b111 5"
1&
#395000
0&
#400000
b0 \
b0 w
b0 E"
0A
b11100 y
b1110000000010101 B
b1110000000010101 o
b1110000000010101 A"
b10011 I
b10011 B"
b10011 I"
b10011 J"
b0 5"
b100 2"
1&
#405000
0&
#410000
b10011 \
b10011 w
b10011 E"
1A
b100 y
b10000000010011 B
b10000000010011 o
b10000000010011 A"
b10100 I
b10100 B"
b10100 I"
b10100 J"
b1 5"
1&
#415000
0&
#420000
b0 \
b0 w
b0 E"
0A
b11100 y
b1110000000010101 B
b1110000000010101 o
b1110000000010101 A"
b10011 I
b10011 B"
b10011 I"
b10011 J"
b10 5"
1&
#425000
0&
#430000
b10011 \
b10011 w
b10011 E"
1A
b100 y
b10000000010011 B
b10000000010011 o
b10000000010011 A"
b10100 I
b10100 B"
b10100 I"
b10100 J"
b11 5"
1&
#435000
0&
#440000
b0 \
b0 w
b0 E"
0A
b11100 y
b1110000000010101 B
b1110000000010101 o
b1110000000010101 A"
b10011 I
b10011 B"
b10011 I"
b10011 J"
b100 5"
1&
#445000
0&
#450000
b10011 \
b10011 w
b10011 E"
1A
b100 y
b10000000010011 B
b10000000010011 o
b10000000010011 A"
b10100 I
b10100 B"
b10100 I"
b10100 J"
b101 5"
1&
#455000
0&
#460000
b0 \
b0 w
b0 E"
0A
b11100 y
b1110000000010101 B
b1110000000010101 o
b1110000000010101 A"
b10011 I
b10011 B"
b10011 I"
b10011 J"
b110 5"
1&
#465000
0&
#470000
b10011 \
b10011 w
b10011 E"
1A
b100 y
b10000000010011 B
b10000000010011 o
b10000000010011 A"
b10100 I
b10100 B"
b10100 I"
b10100 J"
b111 5"
1&
#475000
0&
#480000
b0 \
b0 w
b0 E"
0A
b11100 y
b1110000000010101 B
b1110000000010101 o
b1110000000010101 A"
b10011 I
b10011 B"
b10011 I"
b10011 J"
b0 5"
b101 2"
1&
#485000
0&
1'
#490000
b10011 \
b10011 w
b10011 E"
1A
b100 y
b10000000010011 B
b10000000010011 o
b10000000010011 A"
b10100 I
b10100 B"
b10100 I"
b10100 J"
b1 5"
1]"
1\"
1&
#495000
0&
#500000
17
1E
b10 \
b10 w
b10 E"
1A
b11100 y
b1110000000010101 B
b1110000000010101 o
b1110000000010101 A"
b10011 I
b10011 B"
b10011 I"
b10011 J"
0]"
b10 C
b10 p
b10 _"
1F
b10 5"
1&
#505000
0&
#510000
0E
07
b11001000 \
b11001000 w
b11001000 E"
1A
b100 y
0:
b1 O"
b10000011001000 B
b10000011001000 o
b10000011001000 A"
b10 I
b10 B"
b10 I"
b10 J"
b11 5"
0`"
b0 C
b0 p
b0 _"
0F
1&
#515000
0&
#520000
15
b0 \
b0 w
b0 E"
0A
b10100 y
b1010000000000000 B
b1010000000000000 o
b1010000000000000 A"
b11001000 I
b11001000 B"
b11001000 I"
b11001000 J"
b100 5"
1&
#525000
0&
#530000
1_
05
b1 y
0=
b1 n"
b101100000000 B
b101100000000 o
b101100000000 A"
b11001001 I
b11001001 B"
b11001001 I"
b11001001 J"
b101 5"
1&
#535000
0&
#540000
b1010 L
b1010 d"
b111 O
b111 ~
b111 c"
10
0_
b11 y
1a
b0 Y
b0 ""
b0 &"
b0 '"
b0 9"
b0 Q"
b0 b"
b0 i"
b1100100000111 B
b1100100000111 o
b1100100000111 A"
b11001010 I
b11001010 B"
b11001010 I"
b11001010 J"
b110 5"
b101 ."
1&
#545000
0&
#550000
0,
b1101001 K
b1101001 $"
b1101001 ,"
b1101001 n
b1101001 )"
b1101001 >
b1101001 m"
b100 `
b100 u
1_
16
00
b0 O
b0 ~
b0 c"
b10101 y
b1101001 L
b1101001 d"
b1010100000000000 B
b1010100000000000 o
b1010100000000000 A"
b11001011 I
b11001011 B"
b11001011 I"
b11001011 J"
b111 5"
1&
#555000
0&
#560000
1,
b0 K
b0 $"
b0 ,"
b10011 ;
b10011 G"
b10011 N"
b0 n
b0 )"
b0 >
b0 m"
1@
1A
18
1D
06
0_
b0 `
b0 u
b11010 y
0a
b1101001 Y
b1101001 ""
b1101001 &"
b1101001 '"
b1101001 9"
b1101001 Q"
b1101001 b"
b1101001 i"
1=
b0 n"
b1101000000000000 B
b1101000000000000 o
b1101000000000000 A"
b11001100 I
b11001100 B"
b11001100 I"
b11001100 J"
b0 5"
b110 2"
b1 ."
1&
#565000
0&
#570000
b0 ;
b0 G"
b0 N"
0D
0@
08
0A
b11100 y
1:
b0 O"
b1110000000010101 B
b1110000000010101 o
b1110000000010101 A"
b10011 I
b10011 B"
b10011 I"
b10011 J"
b1 5"
1`"
1&
#575000
0&
#580000
b10011 \
b10011 w
b10011 E"
1A
b100 y
b10000000010011 B
b10000000010011 o
b10000000010011 A"
b10100 I
b10100 B"
b10100 I"
b10100 J"
b10 5"
1&
#585000
0&
#590000
b0 \
b0 w
b0 E"
0A
b11100 y
b1110000000010101 B
b1110000000010101 o
b1110000000010101 A"
b10011 I
b10011 B"
b10011 I"
b10011 J"
b11 5"
1&
#595000
0&
#600000
b10011 \
b10011 w
b10011 E"
1A
b100 y
b10000000010011 B
b10000000010011 o
b10000000010011 A"
b10100 I
b10100 B"
b10100 I"
b10100 J"
b100 5"
1&
#605000
0&
#610000
b0 \
b0 w
b0 E"
0A
b11100 y
b1110000000010101 B
b1110000000010101 o
b1110000000010101 A"
b10011 I
b10011 B"
b10011 I"
b10011 J"
b101 5"
1&
#615000
0&
#620000
b10011 \
b10011 w
b10011 E"
1A
b100 y
b10000000010011 B
b10000000010011 o
b10000000010011 A"
b10100 I
b10100 B"
b10100 I"
b10100 J"
b110 5"
1&
#625000
0&
#630000
b0 \
b0 w
b0 E"
0A
b11100 y
b1110000000010101 B
b1110000000010101 o
b1110000000010101 A"
b10011 I
b10011 B"
b10011 I"
b10011 J"
b111 5"
1&
#635000
b101 M
b101 W"
0&
b100 "
b100 *
b100 S"
b100 %
b101 !
b101 )
b101 R"
b101 $
0'
