mikroProcesor/tb/procesor_tb.vcd
$date
	Sat Jan 24 12:33:03 2026
$end
$version
	Icarus Verilog
$end
$timescale
	1ps
$end
$scope module procesor_tb $end
$var wire 8 ! SW1 [7:0] $end
$var wire 8 " SW2 [7:0] $end
$var wire 1 # dioda_error $end
$var wire 8 $ LED [7:0] $end
$var reg 8 % SW_A [7:0] $end
$var reg 8 & SW_B [7:0] $end
$var reg 1 ' clk $end
$var reg 1 ( ext_przerwanie $end
$var reg 1 ) rst $end
$scope module u_procesor $end
$var wire 1 ) button_c $end
$var wire 1 ' clk $end
$var wire 8 * in_out_A [7:0] $end
$var wire 8 + in_out_B [7:0] $end
$var wire 1 ( przerwanie_zewnetrzne $end
$var wire 1 , znak_S $end
$var wire 1 - zero_Z $end
$var wire 1 . zapisz_control $end
$var wire 1 / zapisz_Low $end
$var wire 1 0 zapisz_High $end
$var wire 1 1 wr_Rx $end
$var wire 1 2 wr_PORTx $end
$var wire 1 3 wr_MEM $end
$var wire 1 4 wr_DDRx $end
$var wire 8 5 wartosc_do_licznika [7:0] $end
$var wire 1 6 stos_push $end
$var wire 1 7 stos_pop $end
$var wire 1 8 stos_pc_push $end
$var wire 1 9 stos_pc_pop $end
$var wire 1 : stos_pc_full $end
$var wire 1 ; stos_pc_empty $end
$var wire 8 < stos_pc_data [7:0] $end
$var wire 1 = stos_full $end
$var wire 1 > stos_empty $end
$var wire 8 ? stos_data [7:0] $end
$var wire 8 @ stala_zmienna [7:0] $end
$var wire 1 A skok_stos $end
$var wire 1 B skok $end
$var wire 16 C rozkaz [15:0] $end
$var wire 8 D przerwanie_wektor [7:0] $end
$var wire 1 E przerwanie_on $end
$var wire 1 F przerwanie_off $end
$var wire 1 G przerw $end
$var wire 1 H przepelnienie_C $end
$var wire 1 I pc_rst $end
$var wire 8 J pc_licznik [7:0] $end
$var wire 1 K parzystosc_P $end
$var wire 8 L out_alu [7:0] $end
$var wire 8 M out_Rx [7:0] $end
$var wire 8 N out_Port [7:0] $end
$var wire 8 O out_MEM [7:0] $end
$var wire 3 P numer_Rx [2:0] $end
$var wire 2 Q nr_PORTx [1:0] $end
$var wire 2 R nr_PINx [1:0] $end
$var wire 2 S nr_DDRx [1:0] $end
$var wire 1 T nadmiar_OV $end
$var wire 1 U mux_address $end
$var wire 1 V licznik_przerwanie $end
$var wire 8 W in_out_C [7:0] $end
$var wire 1 X flaga_licznik $end
$var wire 1 Y flaga_clear_licznik $end
$var wire 1 Z dioda_err $end
$var wire 8 [ data [7:0] $end
$var wire 1 \ carry $end
$var wire 4 ] alu_op [3:0] $end
$var wire 8 ^ adres_skoku [7:0] $end
$var wire 8 _ address_wybor [7:0] $end
$var wire 8 ` address [7:0] $end
$var wire 1 a a_ce $end
$var wire 3 b MUX_im_rx_mem_port [2:0] $end
$var wire 1 c ID_Z $end
$var wire 1 d ID_S $end
$var wire 1 e ID_P $end
$var wire 1 f ID_OV $end
$var wire 1 g ID_C_OV_kasowanie $end
$var wire 1 h ID_C_OV_en $end
$var parameter 32 i DATA_szerokosc_strony $end
$var parameter 32 j P_MEM_address $end
$var parameter 32 k P_PROC_data $end
$var parameter 32 l P_PROG_addres $end
$var parameter 32 m P_PROG_data $end
$var parameter 32 n P_Rx_ILE $end
$var parameter 32 o P_STOS_depth $end
$var reg 1 # dioda_error $end
$var reg 1 p dioda_error_reg $end
$var reg 8 q mux_I_R_M_P [7:0] $end
$scope module u_ID $end
$var wire 16 r rozkaz [15:0] $end
$var wire 1 G jest_przerwanie $end
$var wire 8 s int_vec [7:0] $end
$var wire 1 c Z_in $end
$var wire 1 d S_in $end
$var wire 1 e P_in $end
$var wire 1 f OV_in $end
$var wire 1 : ID_stos_pc_full $end
$var wire 1 ; ID_stos_pc_empty $end
$var wire 1 = ID_stos_full $end
$var wire 1 > ID_stos_empty $end
$var wire 1 X ID_flaga_licznik $end
$var wire 1 \ C_in $end
$var parameter 32 t ID_rozm_adres $end
$var parameter 32 u ID_rozm_dana $end
$var parameter 32 v I_WIDTH $end
$var reg 4 w ALU_op [3:0] $end
$var reg 1 a A_ce $end
$var reg 1 h C_OV_en $end
$var reg 1 g C_OV_kasowanie $end
$var reg 1 Z ID_dioda_error $end
$var reg 1 Y ID_flaga_clear_licznik $end
$var reg 1 7 ID_pop $end
$var reg 1 9 ID_pop_pc $end
$var reg 1 6 ID_push $end
$var reg 1 8 ID_push_pc $end
$var reg 1 I ID_rst $end
$var reg 1 0 ID_zapisz_H $end
$var reg 1 / ID_zapisz_L $end
$var reg 1 . ID_zapisz_control $end
$var reg 3 x MUX_IM_Rx_MEM_PORT [2:0] $end
$var reg 1 U MUX_adres $end
$var reg 8 y adres [7:0] $end
$var reg 8 z adres_skok_ID [7:0] $end
$var reg 5 { instrukcja [4:0] $end
$var reg 1 F int_dis $end
$var reg 1 E int_en $end
$var reg 8 | licznik_wartosc [7:0] $end
$var reg 2 } nr_P_DDRx [1:0] $end
$var reg 2 ~ nr_P_PINx [1:0] $end
$var reg 2 !" nr_P_PORTx [1:0] $end
$var reg 3 "" nr_Rx [2:0] $end
$var reg 1 B skok_ID $end
$var reg 1 A skok_pc_ID $end
$var reg 8 #" wartosc_IM [7:0] $end
$var reg 1 4 wr_DDRx $end
$var reg 1 3 wr_MEM $end
$var reg 1 2 wr_PORTx $end
$var reg 1 1 wr_Rx $end
$scope begin ID_always $end
$upscope $end
$upscope $end
$scope module u_akumulator $end
$var wire 1 a A_ce $end
$var wire 1 ' clk $end
$var wire 8 $" out [7:0] $end
$var wire 1 ) rst $end
$var wire 8 %" a [7:0] $end
$var parameter 32 &" ALU_rozm_data $end
$var reg 8 '" akum [7:0] $end
$scope begin always_A $end
$upscope $end
$upscope $end
$scope module u_alu $end
$var wire 1 H C $end
$var wire 1 T OV $end
$var wire 8 (" a [7:0] $end
$var wire 4 )" alu_op [3:0] $end
$var wire 8 *" b [7:0] $end
$var wire 1 - Z $end
$var wire 1 , S $end
$var wire 1 K P $end
$var wire 1 \ C_in $end
$var parameter 32 +" ALU_rozm_data $end
$var reg 1 ," carry $end
$var reg 8 -" out [7:0] $end
$scope begin blockName $end
$upscope $end
$upscope $end
$scope module u_flagi $end
$var wire 1 h C_OV_en $end
$var wire 1 g C_OV_kasowanie $end
$var wire 1 H C_in $end
$var wire 1 T OV_in $end
$var wire 1 K P_in $end
$var wire 1 , S_in $end
$var wire 1 - Z_in $end
$var wire 1 ' clk $end
$var wire 1 a flagi_en $end
$var wire 1 ) rst $end
$var wire 1 c Z_out $end
$var wire 1 d S_out $end
$var wire 1 e P_out $end
$var wire 1 f OV_out $end
$var wire 1 \ C_out $end
$var reg 8 ." rejestr_flag [7:0] $end
$upscope $end
$scope module u_licznik $end
$var wire 1 ' clk $end
$var wire 1 Y licznik_flaga_clear $end
$var wire 1 ) rst $end
$var wire 8 /" wartosc [7:0] $end
$var wire 1 0 zapisz_H $end
$var wire 1 / zapisz_L $end
$var wire 1 . zapisz_ctr $end
$var reg 1 0" int_enable $end
$var reg 16 1" licznik [15:0] $end
$var reg 1 2" licznik_enable $end
$var reg 1 X licznik_flaga $end
$var reg 1 V licznik_int $end
$var reg 16 3" preskaler [15:0] $end
$var reg 16 4" preskaler_cnt [15:0] $end
$var reg 1 5" tryb $end
$var reg 16 6" wartosc_max [15:0] $end
$upscope $end
$scope module u_pamiec_data $end
$var wire 8 7" adres [7:0] $end
$var wire 1 ' clk $end
$var wire 8 8" dane [7:0] $end
$var wire 1 ) rst $end
$var wire 1 3 wr_mem $end
$var wire 8 9" out [7:0] $end
$var parameter 32 :" ADDR_WIDTH_MEM $end
$var parameter 32 ;" DATA_WIDTH_MEM $end
$var parameter 32 <" DATA_WIDTH_STRONY $end
$var parameter 44 =" MEM_SIZE_Fizycznie $end
$var reg 4 >" strona [3:0] $end
$scope begin always_mem $end
$upscope $end
$upscope $end
$scope module u_pamiec_prog $end
$var wire 16 ?" out [15:0] $end
$var wire 8 @" a [7:0] $end
$var parameter 32 A" ADDR_WIDTH $end
$var parameter 32 B" DATA_WIDTH $end
$upscope $end
$scope module u_pc $end
$var wire 1 I ID_rst $end
$var wire 8 C" adres_skok_pc [7:0] $end
$var wire 1 ' clk $end
$var wire 1 E reti_int_en $end
$var wire 1 ) rst $end
$var wire 1 B skok_pc $end
$var wire 1 A skok_pc_stos $end
$var wire 8 D" adres_skok_pc_stos [7:0] $end
$var parameter 32 E" W $end
$var reg 8 F" PC_count [7:0] $end
$scope begin LicznikRozkazow $end
$upscope $end
$upscope $end
$scope module u_pc_stos $end
$var wire 1 ' clk $end
$var wire 8 G" data_in [7:0] $end
$var wire 1 9 pop $end
$var wire 1 8 push $end
$var wire 1 ) rst $end
$var parameter 32 H" STOS_Rozm $end
$var parameter 32 I" STOS_data_rozm $end
$var reg 8 J" data_out [7:0] $end
$var reg 1 ; empty $end
$var reg 1 : full $end
$var reg 5 K" stos_ptr [4:0] $end
$scope begin stos $end
$scope begin $ivl_for_loop1 $end
$var integer 32 L" i [31:0] $end
$upscope $end
$upscope $end
$upscope $end
$scope module u_port $end
$var wire 1 ' clk $end
$var wire 8 M" dane [7:0] $end
$var wire 8 N" in_out_A [7:0] $end
$var wire 8 O" in_out_B [7:0] $end
$var wire 2 P" nr_P_DDRx [1:0] $end
$var wire 2 Q" nr_P_PINx [1:0] $end
$var wire 2 R" nr_P_PORTx [1:0] $end
$var wire 8 S" out [7:0] $end
$var wire 1 ) rst $end
$var wire 1 4 wr_DDRx $end
$var wire 1 2 wr_PORTx $end
$var wire 8 T" in_out_C [7:0] $end
$var parameter 32 U" Port_rozm_data $end
$scope begin alwasyDDR $end
$upscope $end
$scope begin alwaysPORT $end
$upscope $end
$upscope $end
$scope module u_przerwanie $end
$var wire 1 ' clk $end
$var wire 1 ( ext_int $end
$var wire 1 F int_disable $end
$var wire 1 E int_enable $end
$var wire 1 ) rst $end
$var wire 1 V timer_int $end
$var reg 1 V" ext_int_prev $end
$var reg 1 W" int_a $end
$var reg 1 X" int_b $end
$var reg 8 Y" int_vector [7:0] $end
$var reg 1 G przerwanie $end
$var reg 1 Z" przerwanie_en $end
$var reg 1 [" timer_int_prev $end
$upscope $end
$scope module u_rejestry $end
$var wire 1 ' clk $end
$var wire 8 \" dane [7:0] $end
$var wire 3 ]" nr_Rx [2:0] $end
$var wire 8 ^" out [7:0] $end
$var wire 1 ) rst $end
$var wire 1 1 wr_Rx $end
$var parameter 32 _" Rx_liczba $end
$var parameter 32 `" Rx_rozm_data $end
$scope begin always_Rx $end
$scope begin $ivl_for_loop0 $end
$var integer 32 a" i [31:0] $end
$upscope $end
$upscope $end
$upscope $end
$scope module u_stos $end
$var wire 1 ' clk $end
$var wire 8 b" data_in [7:0] $end
$var wire 1 7 pop $end
$var wire 1 6 push $end
$var wire 1 ) rst $end
$var parameter 32 c" STOS_Rozm $end
$var parameter 32 d" STOS_data_rozm $end
$var reg 8 e" data_out [7:0] $end
$var reg 1 > empty $end
$var reg 1 = full $end
$var reg 5 f" stos_ptr [4:0] $end
$scope begin stos $end
$scope begin $ivl_for_loop1 $end
$var integer 32 g" i [31:0] $end
$upscope $end
$upscope $end
$upscope $end
$scope begin always_MUX_IM_Rx_MEM_PORT $end
$upscope $end
$upscope $end
$upscope $end
$enddefinitions $end
$comment Show the parameter values. $end
$dumpall
b1000 d"
b100000 c"
b1000 `"
b1000 _"
b1000 U"
b1000 I"
b100000 H"
b1000 E"
b10000 B"
b1000 A"
b1000000000000 ="
b100 <"
b1000 ;"
b1000 :"
b1000 +"
b1000 &"
b10000 v
b1000 u
b1000 t
b100000 o
b1000 n
b10000 m
b1000 l
b1000 k
b1000 j
b100 i
$end
#0
$dumpvars
b0 g"
bx f"
b0 e"
bx b"
b0 a"
bx ^"
b0 ]"
bx \"
x["
xZ"
b0 Y"
xX"
xW"
xV"
bx T"
bx S"
b0 R"
b0 Q"
b0 P"
bx O"
bx N"
bx M"
b0 L"
bx K"
b0 J"
bx G"
bx F"
b0 D"
b0 C"
bx @"
bx ?"
bx >"
bx 9"
bx 8"
b0 7"
bx 6"
x5"
bx 4"
bx 3"
x2"
b0 1"
x0"
b0 /"
bx ."
b0 -"
0,"
b0 *"
b0 )"
bx ("
bx '"
b0 %"
bx $"
b0 #"
b0 ""
b0 !"
b0 ~
b0 }
b0 |
bx {
b0 z
b0 y
b0 x
b0 w
b0 s
bx r
b0 q
xp
0h
0g
xf
xe
xd
xc
b0 b
0a
b0 `
b0 _
b0 ^
b0 ]
x\
bx [
0Z
0Y
0X
bx W
0V
0U
0T
b0 S
b0 R
b0 Q
b0 P
bx O
bx N
bx M
b0 L
1K
bx J
0I
0H
0G
0F
0E
b0 D
bx C
0B
0A
b0 @
b0 ?
x>
x=
b0 <
x;
x:
09
08
07
06
b0 5
04
03
02
01
00
0/
0.
1-
0,
bx +
bx *
x)
x(
1'
bx &
bx %
bx $
x#
bx "
bx !
$end
#5000
0'
#10000
0["
1'
#15000
0'
#20000
0V"
1'
b0 &
b0 %
0(
0)
#25000
0'
#30000
b0 N
b0 S"
b0 $
b0 W
b0 T"
b0 "
b0 +
b0 O"
b0 !
b0 *
b0 N"
b1000 ^
b1000 z
b1000 C"
1B
b100 {
0\
0d
0c
0f
0e
b0 [
b0 $"
b0 '"
b0 ("
b0 8"
b0 M"
b0 \"
b0 b"
1>
0=
b0 f"
b0 >"
b0 M
b0 ^"
1;
0:
b0 K"
b10000000001000 C
b10000000001000 r
b10000000001000 ?"
b0 J
b0 @"
b0 F"
b0 G"
0p
0#
b0 ."
b1111111111111111 6"
00"
05"
02"
b1 3"
b0 4"
0X"
0W"
0Z"
b100000 g"
b1000 a"
b100000 L"
1'
1)
#35000
0'
#40000
1a
b0 ^
b0 z
b0 C"
0B
b1 {
b101100000000 C
b101100000000 r
b101100000000 ?"
b1000 J
b1000 @"
b1000 F"
b1000 G"
1'
0)
#45000
0'
#50000
14
0a
b11 {
1c
1e
b1101100000000 C
b1101100000000 r
b1101100000000 ?"
b1001 J
b1001 @"
b1001 F"
b1001 G"
b101 ."
1'
#55000
0'
#60000
1,
0K
0-
b11111110 L
b11111110 %"
b11111110 -"
b11111110 q
b11111110 *"
1a
b11111110 @
b11111110 #"
04
b1 {
b101111111110 C
b101111111110 r
b101111111110 ?"
b1010 J
b1010 @"
b1010 F"
b1010 G"
1'
#65000
0'
#70000
0,
1K
1-
b0 L
b0 %"
b0 -"
b0 q
b0 *"
b1 S
b1 }
b1 P"
14
0a
b0 @
b0 #"
b11 {
1d
0c
0e
b11111110 [
b11111110 $"
b11111110 '"
b11111110 ("
b11111110 8"
b11111110 M"
b11111110 \"
b11111110 b"
b1101100000001 C
b1101100000001 r
b1101100000001 ?"
b1011 J
b1011 @"
b1011 F"
b1011 G"
b1000 ."
1'
#75000
0'
#80000
0T
1,
0-
b11111111 L
b11111111 %"
b11111111 -"
b11111111 q
b11111111 *"
1a
b11111111 @
b11111111 #"
04
b0 S
b0 }
b0 P"
b1 {
b101111111111 C
b101111111111 r
b101111111111 ?"
b1100 J
b1100 @"
b1100 F"
b1100 G"
1'
#85000
0'
#90000
0,
1-
b0 L
b0 %"
b0 -"
b0 q
b0 *"
b10 S
b10 }
b10 P"
14
0a
b0 @
b0 #"
b11 {
1e
b11111111 [
b11111111 $"
b11111111 '"
b11111111 ("
b11111111 8"
b11111111 M"
b11111111 \"
b11111111 b"
b1101100000010 C
b1101100000010 r
b1101100000010 ?"
b1101 J
b1101 @"
b1101 F"
b1101 G"
b1001 ."
1'
#95000
0'
#100000
0T
1,
0K
0-
b11111110 L
b11111110 %"
b11111110 -"
b11111110 q
b11111110 *"
1a
b11111110 @
b11111110 #"
04
b0 S
b0 }
b0 P"
b1 {
b101111111110 C
b101111111110 r
b101111111110 ?"
b1110 J
b1110 @"
b1110 F"
b1110 G"
1'
#105000
0'
#110000
0,
1K
1-
b0 L
b0 %"
b0 -"
b0 q
b0 *"
b111 P
b111 ""
b111 ]"
11
0a
b0 @
b0 #"
b11 {
0e
b11111110 [
b11111110 $"
b11111110 '"
b11111110 ("
b11111110 8"
b11111110 M"
b11111110 \"
b11111110 b"
b1100100000111 C
b1100100000111 r
b1100100000111 ?"
b1111 J
b1111 @"
b1111 F"
b1111 G"
b1000 ."
1'
#115000
0'
#120000
1a
01
b0 P
b0 ""
b0 ]"
b1 {
b0 M
b0 ^"
b101100000000 C
b101100000000 r
b101100000000 ?"
b10000 J
b10000 @"
b10000 F"
b10000 G"
1'
#125000
0'
#130000
11
0a
b11 {
0d
1c
1e
b0 [
b0 $"
b0 '"
b0 ("
b0 8"
b0 M"
b0 \"
b0 b"
b1100100000000 C
b1100100000000 r
b1100100000000 ?"
b10001 J
b10001 @"
b10001 F"
b10001 G"
b101 ."
1'
#135000
0'
#140000
b1 P
b1 ""
b1 ]"
11
b1100100000001 C
b1100100000001 r
b1100100000001 ?"
b10010 J
b10010 @"
b10010 F"
b10010 G"
1'
#145000
0'
#150000
11
b10 P
b10 ""
b10 ]"
b1100100000010 C
b1100100000010 r
b1100100000010 ?"
b10011 J
b10011 @"
b10011 F"
b10011 G"
1'
#155000
0'
#160000
0K
0-
b1 L
b1 %"
b1 -"
b1 q
b1 *"
1a
b1 @
b1 #"
01
b0 P
b0 ""
b0 ]"
b1 {
b101100000001 C
b101100000001 r
b101100000001 ?"
b10100 J
b10100 @"
b10100 F"
b10100 G"
1'
#165000
0'
#170000
1K
1-
b0 L
b0 %"
b0 -"
b0 q
b0 *"
b110 P
b110 ""
b110 ]"
11
0a
b0 @
b0 #"
b11 {
0c
0e
b1 [
b1 $"
b1 '"
b1 ("
b1 8"
b1 M"
b1 \"
b1 b"
b1100100000110 C
b1100100000110 r
b1100100000110 ?"
b10101 J
b10101 @"
b10101 F"
b10101 G"
b0 ."
1'
#175000
0'
#180000
b0 O
b0 9"
b11111111 _
b11111111 7"
b11111111 `
b11111111 y
13
01
b0 P
b0 ""
b0 ]"
b0 M
b0 ^"
b1100011111111 C
b1100011111111 r
b1100011111111 ?"
b10110 J
b10110 @"
b10110 F"
b10110 G"
1W"
1V"
1'
1(
#185000
0'
#190000
0K
0-
b1 L
b1 %"
b1 -"
b1 q
b1 *"
b0 _
b0 7"
bx O
bx 9"
1a
b1 @
b1 #"
03
b0 `
b0 y
b1 {
b1 >"
b101100000001 C
b101100000001 r
b101100000001 ?"
b10111 J
b10111 @"
b10111 F"
b10111 G"
1'
#195000
0'
#200000
1K
1-
b0 L
b0 %"
b0 -"
b0 q
b0 *"
13
0a
b0 @
b0 #"
b11 {
b1100000000000 C
b1100000000000 r
b1100000000000 ?"
b11000 J
b11000 @"
b11000 F"
b11000 G"
1'
#205000
0'
#210000
0K
0-
b1001111 L
b1001111 %"
b1001111 -"
b1001111 q
b1001111 *"
b1 O
b1 9"
1a
b1001111 @
b1001111 #"
03
b1 {
b101101001111 C
b101101001111 r
b101101001111 ?"
b11001 J
b11001 @"
b11001 F"
b11001 G"
1'
#215000
0'
#220000
bx O
bx 9"
1K
1-
b0 L
b0 %"
b0 -"
b1 _
b1 7"
b0 q
b0 *"
b1 `
b1 y
13
0a
b0 @
b0 #"
b11 {
b1001111 [
b1001111 $"
b1001111 '"
b1001111 ("
b1001111 8"
b1001111 M"
b1001111 \"
b1001111 b"
b1100000000001 C
b1100000000001 r
b1100000000001 ?"
b11010 J
b11010 @"
b11010 F"
b11010 G"
1'
#225000
0'
#230000
0-
b10010 L
b10010 %"
b10010 -"
b10010 q
b10010 *"
b0 _
b0 7"
b1 O
b1 9"
1a
b10010 @
b10010 #"
03
b0 `
b0 y
b1 {
b101100010010 C
b101100010010 r
b101100010010 ?"
b11011 J
b11011 @"
b11011 F"
b11011 G"
0V"
1'
0(
#235000
0'
#240000
bx O
bx 9"
1-
b0 L
b0 %"
b0 -"
b10 _
b10 7"
b0 q
b0 *"
b10 `
b10 y
13
0a
b0 @
b0 #"
b11 {
1e
b10010 [
b10010 $"
b10010 '"
b10010 ("
b10010 8"
b10010 M"
b10010 \"
b10010 b"
b1100000000010 C
b1100000000010 r
b1100000000010 ?"
b11100 J
b11100 @"
b11100 F"
b11100 G"
b1 ."
1'
#245000
0'
#250000
0-
b110 L
b110 %"
b110 -"
b110 q
b110 *"
b0 _
b0 7"
b1 O
b1 9"
1a
b110 @
b110 #"
03
b0 `
b0 y
b1 {
b101100000110 C
b101100000110 r
b101100000110 ?"
b11101 J
b11101 @"
b11101 F"
b11101 G"
1'
#255000
0'
#260000
bx O
bx 9"
1-
b0 L
b0 %"
b0 -"
b11 _
b11 7"
b0 q
b0 *"
b11 `
b11 y
13
0a
b0 @
b0 #"
b11 {
b110 [
b110 $"
b110 '"
b110 ("
b110 8"
b110 M"
b110 \"
b110 b"
b1100000000011 C
b1100000000011 r
b1100000000011 ?"
b11110 J
b11110 @"
b11110 F"
b11110 G"
1'
#265000
0'
#270000
0K
0-
b1001100 L
b1001100 %"
b1001100 -"
b1001100 q
b1001100 *"
b0 _
b0 7"
b1 O
b1 9"
1a
b1001100 @
b1001100 #"
03
b0 `
b0 y
b1 {
b101101001100 C
b101101001100 r
b101101001100 ?"
b11111 J
b11111 @"
b11111 F"
b11111 G"
1'
#275000
0'
#280000
bx O
bx 9"
1K
1-
b0 L
b0 %"
b0 -"
b100 _
b100 7"
b0 q
b0 *"
b100 `
b100 y
13
0a
b0 @
b0 #"
b11 {
0e
b1001100 [
b1001100 $"
b1001100 '"
b1001100 ("
b1001100 8"
b1001100 M"
b1001100 \"
b1001100 b"
b1100000000100 C
b1100000000100 r
b1100000000100 ?"
b100000 J
b100000 @"
b100000 F"
b100000 G"
b0 ."
1'
#285000
0'
#290000
0-
b100100 L
b100100 %"
b100100 -"
b100100 q
b100100 *"
b0 _
b0 7"
b1 O
b1 9"
1a
b100100 @
b100100 #"
03
b0 `
b0 y
b1 {
b101100100100 C
b101100100100 r
b101100100100 ?"
b100001 J
b100001 @"
b100001 F"
b100001 G"
1'
#295000
0'
#300000
bx O
bx 9"
1-
b0 L
b0 %"
b0 -"
b101 _
b101 7"
b0 q
b0 *"
b101 `
b101 y
13
0a
b0 @
b0 #"
b11 {
1e
b100100 [
b100100 $"
b100100 '"
b100100 ("
b100100 8"
b100100 M"
b100100 \"
b100100 b"
b1100000000101 C
b1100000000101 r
b1100000000101 ?"
b100010 J
b100010 @"
b100010 F"
b100010 G"
b1 ."
1'
#305000
0'
#310000
0K
0-
b100000 L
b100000 %"
b100000 -"
b100000 q
b100000 *"
b0 _
b0 7"
b1 O
b1 9"
1a
b100000 @
b100000 #"
03
b0 `
b0 y
b1 {
b101100100000 C
b101100100000 r
b101100100000 ?"
b100011 J
b100011 @"
b100011 F"
b100011 G"
1'
#315000
0'
#320000
bx O
bx 9"
1K
1-
b0 L
b0 %"
b0 -"
b110 _
b110 7"
b0 q
b0 *"
b110 `
b110 y
13
0a
b0 @
b0 #"
b11 {
0e
b100000 [
b100000 $"
b100000 '"
b100000 ("
b100000 8"
b100000 M"
b100000 \"
b100000 b"
b1100000000110 C
b1100000000110 r
b1100000000110 ?"
b100100 J
b100100 @"
b100100 F"
b100100 G"
b0 ."
1'
#325000
0'
#330000
0-
b1111 L
b1111 %"
b1111 -"
b1111 q
b1111 *"
b0 _
b0 7"
b1 O
b1 9"
1a
b1111 @
b1111 #"
03
b0 `
b0 y
b1 {
b101100001111 C
b101100001111 r
b101100001111 ?"
b100101 J
b100101 @"
b100101 F"
b100101 G"
1'
#335000
0'
#340000
bx O
bx 9"
1-
b0 L
b0 %"
b0 -"
b111 _
b111 7"
b0 q
b0 *"
b111 `
b111 y
13
0a
b0 @
b0 #"
b11 {
1e
b1111 [
b1111 $"
b1111 '"
b1111 ("
b1111 8"
b1111 M"
b1111 \"
b1111 b"
b1100000000111 C
b1100000000111 r
b1100000000111 ?"
b100110 J
b100110 @"
b100110 F"
b100110 G"
b1 ."
1'
#345000
0'
#350000
b0 _
b0 7"
b1 O
b1 9"
1a
03
b0 `
b0 y
b1 {
b101100000000 C
b101100000000 r
b101100000000 ?"
b100111 J
b100111 @"
b100111 F"
b100111 G"
1'
#355000
0'
#360000
bx O
bx 9"
b1000 _
b1000 7"
b1000 `
b1000 y
13
0a
b11 {
1c
b0 [
b0 $"
b0 '"
b0 ("
b0 8"
b0 M"
b0 \"
b0 b"
b1100000001000 C
b1100000001000 r
b1100000001000 ?"
b101000 J
b101000 @"
b101000 F"
b101000 G"
b101 ."
1'
#365000
0'
#370000
0K
0-
b100 L
b100 %"
b100 -"
b100 q
b100 *"
b0 _
b0 7"
b1 O
b1 9"
1a
b100 @
b100 #"
03
b0 `
b0 y
b1 {
b101100000100 C
b101100000100 r
b101100000100 ?"
b101001 J
b101001 @"
b101001 F"
b101001 G"
1'
#375000
0'
#380000
bx O
bx 9"
1K
1-
b0 L
b0 %"
b0 -"
b1001 _
b1001 7"
b0 q
b0 *"
b1001 `
b1001 y
13
0a
b0 @
b0 #"
b11 {
0c
0e
b100 [
b100 $"
b100 '"
b100 ("
b100 8"
b100 M"
b100 \"
b100 b"
b1100000001001 C
b1100000001001 r
b1100000001001 ?"
b101010 J
b101010 @"
b101010 F"
b101010 G"
b0 ."
1'
#385000
0'
#390000
0K
0-
b1000 L
b1000 %"
b1000 -"
b1000 q
b1000 *"
b0 _
b0 7"
b1 O
b1 9"
1a
b1000 @
b1000 #"
03
b0 `
b0 y
b1 {
b101100001000 C
b101100001000 r
b101100001000 ?"
b101011 J
b101011 @"
b101011 F"
b101011 G"
1'
#395000
0'
#400000
bx O
bx 9"
1K
1-
b0 L
b0 %"
b0 -"
b1010 _
b1010 7"
b0 q
b0 *"
b1010 `
b1010 y
13
0a
b0 @
b0 #"
b11 {
b1000 [
b1000 $"
b1000 '"
b1000 ("
b1000 8"
b1000 M"
b1000 \"
b1000 b"
b1100000001010 C
b1100000001010 r
b1100000001010 ?"
b101100 J
b101100 @"
b101100 F"
b101100 G"
1'
#405000
0'
#410000
0-
b1100000 L
b1100000 %"
b1100000 -"
b1100000 q
b1100000 *"
b0 _
b0 7"
b1 O
b1 9"
1a
b1100000 @
b1100000 #"
03
b0 `
b0 y
b1 {
b101101100000 C
b101101100000 r
b101101100000 ?"
b101101 J
b101101 @"
b101101 F"
b101101 G"
1'
#415000
0'
#420000
bx O
bx 9"
1-
b0 L
b0 %"
b0 -"
b1011 _
b1011 7"
b0 q
b0 *"
b1011 `
b1011 y
13
0a
b0 @
b0 #"
b11 {
1e
b1100000 [
b1100000 $"
b1100000 '"
b1100000 ("
b1100000 8"
b1100000 M"
b1100000 \"
b1100000 b"
b1100000001011 C
b1100000001011 r
b1100000001011 ?"
b101110 J
b101110 @"
b101110 F"
b101110 G"
b1 ."
1'
#425000
0'
#430000
0K
0-
b110001 L
b110001 %"
b110001 -"
b110001 q
b110001 *"
b0 _
b0 7"
b1 O
b1 9"
1a
b110001 @
b110001 #"
03
b0 `
b0 y
b1 {
b101100110001 C
b101100110001 r
b101100110001 ?"
b101111 J
b101111 @"
b101111 F"
b101111 G"
1'
#435000
0'
#440000
bx O
bx 9"
1K
1-
b0 L
b0 %"
b0 -"
b1100 _
b1100 7"
b0 q
b0 *"
b1100 `
b1100 y
13
0a
b0 @
b0 #"
b11 {
0e
b110001 [
b110001 $"
b110001 '"
b110001 ("
b110001 8"
b110001 M"
b110001 \"
b110001 b"
b1100000001100 C
b1100000001100 r
b1100000001100 ?"
b110000 J
b110000 @"
b110000 F"
b110000 G"
b0 ."
1'
#445000
0'
#450000
0-
b1000010 L
b1000010 %"
b1000010 -"
b1000010 q
b1000010 *"
b0 _
b0 7"
b1 O
b1 9"
1a
b1000010 @
b1000010 #"
03
b0 `
b0 y
b1 {
b101101000010 C
b101101000010 r
b101101000010 ?"
b110001 J
b110001 @"
b110001 F"
b110001 G"
1'
#455000
0'
#460000
bx O
bx 9"
1-
b0 L
b0 %"
b0 -"
b1101 _
b1101 7"
b0 q
b0 *"
b1101 `
b1101 y
13
0a
b0 @
b0 #"
b11 {
1e
b1000010 [
b1000010 $"
b1000010 '"
b1000010 ("
b1000010 8"
b1000010 M"
b1000010 \"
b1000010 b"
b1100000001101 C
b1100000001101 r
b1100000001101 ?"
b110010 J
b110010 @"
b110010 F"
b110010 G"
b1 ."
1'
#465000
0'
#470000
0-
b110000 L
b110000 %"
b110000 -"
b110000 q
b110000 *"
b0 _
b0 7"
b1 O
b1 9"
1a
b110000 @
b110000 #"
03
b0 `
b0 y
b1 {
b101100110000 C
b101100110000 r
b101100110000 ?"
b110011 J
b110011 @"
b110011 F"
b110011 G"
1'
#475000
0'
#480000
bx O
bx 9"
1-
b0 L
b0 %"
b0 -"
b1110 _
b1110 7"
b0 q
b0 *"
b1110 `
b1110 y
13
0a
b0 @
b0 #"
b11 {
b110000 [
b110000 $"
b110000 '"
b110000 ("
b110000 8"
b110000 M"
b110000 \"
b110000 b"
b1100000001110 C
b1100000001110 r
b1100000001110 ?"
b110100 J
b110100 @"
b110100 F"
b110100 G"
1'
#485000
0'
#490000
0K
0-
b111000 L
b111000 %"
b111000 -"
b111000 q
b111000 *"
b0 _
b0 7"
b1 O
b1 9"
1a
b111000 @
b111000 #"
03
b0 `
b0 y
b1 {
b101100111000 C
b101100111000 r
b101100111000 ?"
b110101 J
b110101 @"
b110101 F"
b110101 G"
1'
#495000
0'
#500000
bx O
bx 9"
1K
1-
b0 L
b0 %"
b0 -"
b1111 _
b1111 7"
b0 q
b0 *"
b1111 `
b1111 y
13
0a
b0 @
b0 #"
b11 {
0e
b111000 [
b111000 $"
b111000 '"
b111000 ("
b111000 8"
b111000 M"
b111000 \"
b111000 b"
b1100000001111 C
b1100000001111 r
b1100000001111 ?"
b110110 J
b110110 @"
b110110 F"
b110110 G"
b0 ."
1'
