mikroProcesor/tb/stos_tb.vcd
$date
	Mon Dec 15 11:02:50 2025
$end
$version
	Icarus Verilog
$end
$timescale
	1ps
$end
$scope module stos_tb $end
$var wire 1 ! full $end
$var wire 1 " empty $end
$var wire 8 # data_out [7:0] $end
$var reg 1 $ clk $end
$var reg 8 % data_acc [7:0] $end
$var reg 8 & data_pc [7:0] $end
$var reg 1 ' pop $end
$var reg 1 ( push $end
$var reg 1 ) rst $end
$var reg 1 * stos_MUX $end
$scope module u_stos $end
$var wire 1 $ clk $end
$var wire 8 + data_acc [7:0] $end
$var wire 8 , data_pc [7:0] $end
$var wire 1 ' pop $end
$var wire 1 ( push $end
$var wire 1 ) rst $end
$var wire 1 * stos_MUX $end
$var wire 8 - data_in [7:0] $end
$var reg 8 . data_out [7:0] $end
$var reg 1 " empty $end
$var reg 1 ! full $end
$var reg 3 / stos_ptr [2:0] $end
$scope begin blockName $end
$upscope $end
$scope begin stos $end
$scope begin $ivl_for_loop0 $end
$var integer 32 0 i [31:0] $end
$upscope $end
$upscope $end
$upscope $end
$upscope $end
$enddefinitions $end
#0
$dumpvars
b0 0
bx /
b0 .
b0 -
b0 ,
b0 +
0*
0)
0(
0'
b0 &
b0 %
1$
b0 #
x"
x!
$end
#5000
0$
#10000
1"
0!
b0 /
b101 0
1$
1)
#15000
0$
#20000
1$
0)
#25000
0$
#30000
b10101010 -
1$
b10111011 &
b10111011 ,
b10101010 %
b10101010 +
#35000
0$
#40000
0"
b1 /
1$
1(
#45000
0$
#50000
1$
0(
#55000
0$
#60000
1"
b0 /
b0 #
b0 .
1$
1'
#65000
0$
#70000
1$
0'
